2017-09-25 05:07:03,963 [streaming-job-executor-0] DEBUG org.apache.spark.internal.Logging$class (Logging.scala:58) - leftKeys:List(jobcandidateinteractionid#124512) | rightKeys:List(jobcandidateinteractionid#124528)
2017-09-25 05:07:03,963 [streaming-job-executor-0] DEBUG org.apache.spark.internal.Logging$class (Logging.scala:58) - Considering join on: Some((jobcandidateinteractionid#124512 = jobcandidateinteractionid#124528))
2017-09-25 05:07:03,963 [streaming-job-executor-0] DEBUG org.apache.spark.internal.Logging$class (Logging.scala:58) - leftKeys:List(jobcandidateinteractionid#124512) | rightKeys:List(jobcandidateinteractionid#124528)
2017-09-25 05:07:03,963 [streaming-job-executor-0] DEBUG org.apache.spark.internal.Logging$class (Logging.scala:58) - Considering join on: Some((jobcandidateinteractionid#124512 = jobcandidateinteractionid#124528))
2017-09-25 05:07:03,963 [streaming-job-executor-0] DEBUG org.apache.spark.internal.Logging$class (Logging.scala:58) - leftKeys:List(jobcandidateinteractionid#124512) | rightKeys:List(jobcandidateinteractionid#124528)
2017-09-25 05:07:03,963 [streaming-job-executor-0] INFO  org.apache.spark.internal.Logging$class (Logging.scala:54) - Predicate isnotnull(jobcandidateinteractionid#124512) generates partition filter: ((jobcandidateinteractionid.count#124584 - jobcandidateinteractionid.nullCount#124583) > 0)
2017-09-25 05:07:03,964 [streaming-job-executor-0] INFO  org.apache.spark.internal.Logging$class (Logging.scala:54) - Predicate isnotnull(id#124464) generates partition filter: ((id.count#124594 - id.nullCount#124593) > 0)
2017-09-25 05:07:03,964 [streaming-job-executor-0] INFO  org.apache.spark.internal.Logging$class (Logging.scala:54) - Predicate isnotnull(applicationstage#124465) generates partition filter: ((applicationstage.count#124599 - applicationstage.nullCount#124598) > 0)
2017-09-25 05:07:03,964 [streaming-job-executor-0] INFO  org.apache.spark.internal.Logging$class (Logging.scala:54) - Predicate isnotnull(applicationstate#124466) generates partition filter: ((applicationstate.count#124604 - applicationstate.nullCount#124603) > 0)
2017-09-25 05:07:03,964 [streaming-job-executor-0] INFO  org.apache.spark.internal.Logging$class (Logging.scala:54) - Predicate isnotnull(createdon#124467) generates partition filter: ((createdon.count#124609 - createdon.nullCount#124608) > 0)
2017-09-25 05:07:03,965 [streaming-job-executor-0] INFO  org.apache.spark.internal.Logging$class (Logging.scala:54) - Predicate isnotnull(candidateid#124468) generates partition filter: ((candidateid.count#124614 - candidateid.nullCount#124613) > 0)
2017-09-25 05:07:03,965 [streaming-job-executor-0] INFO  org.apache.spark.internal.Logging$class (Logging.scala:54) - Predicate isnotnull(jobid#124469) generates partition filter: ((jobid.count#124619 - jobid.nullCount#124618) > 0)
2017-09-25 05:07:03,990 [streaming-job-executor-0] DEBUG org.apache.spark.internal.Logging$class (Logging.scala:58) - 
=== Result of Batch CleanExpressions ===
!input[4, date, true] AS submittedon#124573   input[4, date, true]
!+- input[4, date, true]                      
        
2017-09-25 05:07:03,991 [streaming-job-executor-0] DEBUG org.apache.spark.internal.Logging$class (Logging.scala:58) - 
/* 001 */ public Object generate(Object[] references) {
/* 002 */   return new GeneratedIterator(references);
/* 003 */ }
/* 004 */
/* 005 */ final class GeneratedIterator extends org.apache.spark.sql.execution.BufferedRowIterator {
/* 006 */   private Object[] references;
/* 007 */   private scala.collection.Iterator smj_leftInput;
/* 008 */   private scala.collection.Iterator smj_rightInput;
/* 009 */   private InternalRow smj_leftRow;
/* 010 */   private InternalRow smj_rightRow;
/* 011 */   private UTF8String smj_value2;
/* 012 */   private java.util.ArrayList smj_matches;
/* 013 */   private UTF8String smj_value3;
/* 014 */   private UTF8String smj_value4;
/* 015 */   private boolean smj_isNull2;
/* 016 */   private org.apache.spark.sql.execution.metric.SQLMetric smj_numOutputRows;
/* 017 */   private UnsafeRow smj_result;
/* 018 */   private org.apache.spark.sql.catalyst.expressions.codegen.BufferHolder smj_holder;
/* 019 */   private org.apache.spark.sql.catalyst.expressions.codegen.UnsafeRowWriter smj_rowWriter;
/* 020 */   private UnsafeRow project_result;
/* 021 */   private org.apache.spark.sql.catalyst.expressions.codegen.BufferHolder project_holder;
/* 022 */   private org.apache.spark.sql.catalyst.expressions.codegen.UnsafeRowWriter project_rowWriter;
/* 023 */
/* 024 */   public GeneratedIterator(Object[] references) {
/* 025 */     this.references = references;
/* 026 */   }
/* 027 */
/* 028 */   public void init(int index, scala.collection.Iterator inputs[]) {
/* 029 */     partitionIndex = index;
/* 030 */     smj_leftInput = inputs[0];
/* 031 */     smj_rightInput = inputs[1];
/* 032 */
/* 033 */     smj_rightRow = null;
/* 034 */
/* 035 */     smj_matches = new java.util.ArrayList();
/* 036 */
/* 037 */     this.smj_numOutputRows = (org.apache.spark.sql.execution.metric.SQLMetric) references[0];
/* 038 */     smj_result = new UnsafeRow(6);
/* 039 */     this.smj_holder = new org.apache.spark.sql.catalyst.expressions.codegen.BufferHolder(smj_result, 160);
/* 040 */     this.smj_rowWriter = new org.apache.spark.sql.catalyst.expressions.codegen.UnsafeRowWriter(smj_holder, 6);
/* 041 */     project_result = new UnsafeRow(5);
/* 042 */     this.project_holder = new org.apache.spark.sql.catalyst.expressions.codegen.BufferHolder(project_result, 128);
/* 043 */     this.project_rowWriter = new org.apache.spark.sql.catalyst.expressions.codegen.UnsafeRowWriter(project_holder, 5);
/* 044 */   }
/* 045 */
/* 046 */   private boolean findNextInnerJoinRows(
/* 047 */     scala.collection.Iterator leftIter,
/* 048 */     scala.collection.Iterator rightIter) {
/* 049 */     smj_leftRow = null;
/* 050 */     int comp = 0;
/* 051 */     while (smj_leftRow == null) {
/* 052 */       if (!leftIter.hasNext()) return false;
/* 053 */       smj_leftRow = (InternalRow) leftIter.next();
/* 054 */
/* 055 */       boolean smj_isNull = smj_leftRow.isNullAt(0);
/* 056 */       UTF8String smj_value = smj_isNull ? null : (smj_leftRow.getUTF8String(0));
/* 057 */       if (smj_isNull) {
/* 058 */         smj_leftRow = null;
/* 059 */         continue;
/* 060 */       }
/* 061 */       if (!smj_matches.isEmpty()) {
/* 062 */         comp = 0;
/* 063 */         if (comp == 0) {
/* 064 */           comp = smj_value.compare(smj_value3);
/* 065 */         }
/* 066 */
/* 067 */         if (comp == 0) {
/* 068 */           return true;
/* 069 */         }
/* 070 */         smj_matches.clear();
/* 071 */       }
/* 072 */
/* 073 */       do {
/* 074 */         if (smj_rightRow == null) {
/* 075 */           if (!rightIter.hasNext()) {
/* 076 */             smj_value3 = smj_value.clone();
/* 077 */             return !smj_matches.isEmpty();
/* 078 */           }
/* 079 */           smj_rightRow = (InternalRow) rightIter.next();
/* 080 */
/* 081 */           boolean smj_isNull1 = smj_rightRow.isNullAt(0);
/* 082 */           UTF8String smj_value1 = smj_isNull1 ? null : (smj_rightRow.getUTF8String(0));
/* 083 */           if (smj_isNull1) {
/* 084 */             smj_rightRow = null;
/* 085 */             continue;
/* 086 */           }
/* 087 */           smj_value2 = smj_value1.clone();
/* 088 */         }
/* 089 */
/* 090 */         comp = 0;
/* 091 */         if (comp == 0) {
/* 092 */           comp = smj_value.compare(smj_value2);
/* 093 */         }
/* 094 */
/* 095 */         if (comp > 0) {
/* 096 */           smj_rightRow = null;
/* 097 */         } else if (comp < 0) {
/* 098 */           if (!smj_matches.isEmpty()) {
/* 099 */             smj_value3 = smj_value.clone();
/* 100 */             return true;
/* 101 */           }
/* 102 */           smj_leftRow = null;
/* 103 */         } else {
/* 104 */           smj_matches.add(smj_rightRow.copy());
/* 105 */           smj_rightRow = null;;
/* 106 */         }
/* 107 */       } while (smj_leftRow != null);
/* 108 */     }
/* 109 */     return false; // unreachable
/* 110 */   }
/* 111 */
/* 112 */   protected void processNext() throws java.io.IOException {
/* 113 */     while (findNextInnerJoinRows(smj_leftInput, smj_rightInput)) {
/* 114 */       int smj_size = smj_matches.size();
/* 115 */       smj_isNull2 = smj_leftRow.isNullAt(0);
/* 116 */       smj_value4 = smj_isNull2 ? null : (smj_leftRow.getUTF8String(0));
/* 117 */       for (int smj_i = 0; smj_i < smj_size; smj_i ++) {
/* 118 */         InternalRow smj_rightRow1 = (InternalRow) smj_matches.get(smj_i);
/* 119 */
/* 120 */         smj_numOutputRows.add(1);
/* 121 */
/* 122 */         boolean smj_isNull6 = smj_rightRow1.isNullAt(3);
/* 123 */         int smj_value8 = smj_isNull6 ? -1 : (smj_rightRow1.getInt(3));
/* 124 */         boolean smj_isNull4 = smj_rightRow1.isNullAt(1);
/* 125 */         UTF8String smj_value6 = smj_isNull4 ? null : (smj_rightRow1.getUTF8String(1));
/* 126 */         boolean smj_isNull5 = smj_rightRow1.isNullAt(2);
/* 127 */         UTF8String smj_value7 = smj_isNull5 ? null : (smj_rightRow1.getUTF8String(2));
/* 128 */         boolean smj_isNull7 = smj_rightRow1.isNullAt(4);
/* 129 */         UTF8String smj_value9 = smj_isNull7 ? null : (smj_rightRow1.getUTF8String(4));
/* 130 */         project_holder.reset();
/* 131 */
/* 132 */         project_rowWriter.zeroOutNullBytes();
/* 133 */
/* 134 */         if (smj_isNull2) {
/* 135 */           project_rowWriter.setNullAt(0);
/* 136 */         } else {
/* 137 */           project_rowWriter.write(0, smj_value4);
/* 138 */         }
/* 139 */
/* 140 */         if (smj_isNull6) {
/* 141 */           project_rowWriter.setNullAt(1);
/* 142 */         } else {
/* 143 */           project_rowWriter.write(1, smj_value8);
/* 144 */         }
/* 145 */
/* 146 */         if (smj_isNull4) {
/* 147 */           project_rowWriter.setNullAt(2);
/* 148 */         } else {
/* 149 */           project_rowWriter.write(2, smj_value6);
/* 150 */         }
/* 151 */
/* 152 */         if (smj_isNull5) {
/* 153 */           project_rowWriter.setNullAt(3);
/* 154 */         } else {
/* 155 */           project_rowWriter.write(3, smj_value7);
/* 156 */         }
/* 157 */
/* 158 */         if (smj_isNull7) {
/* 159 */           project_rowWriter.setNullAt(4);
/* 160 */         } else {
/* 161 */           project_rowWriter.write(4, smj_value9);
/* 162 */         }
/* 163 */         project_result.setTotalSize(project_holder.totalSize());
/* 164 */         append(project_result.copy());
/* 165 */
/* 166 */       }
/* 167 */       if (shouldStop()) return;
/* 168 */     }
/* 169 */   }
/* 170 */ }

2017-09-25 05:07:03,992 [streaming-job-executor-0] DEBUG org.apache.spark.internal.Logging$class (Logging.scala:58) - 
/* 001 */ public Object generate(Object[] references) {
/* 002 */   return new GeneratedIterator(references);
/* 003 */ }
/* 004 */
/* 005 */ final class GeneratedIterator extends org.apache.spark.sql.execution.BufferedRowIterator {
/* 006 */   private Object[] references;
/* 007 */   private scala.collection.Iterator inputadapter_input;
/* 008 */   private org.apache.spark.sql.execution.metric.SQLMetric filter_numOutputRows;
/* 009 */   private UnsafeRow filter_result;
/* 010 */   private org.apache.spark.sql.catalyst.expressions.codegen.BufferHolder filter_holder;
/* 011 */   private org.apache.spark.sql.catalyst.expressions.codegen.UnsafeRowWriter filter_rowWriter;
/* 012 */   private UnsafeRow project_result;
/* 013 */   private org.apache.spark.sql.catalyst.expressions.codegen.BufferHolder project_holder;
/* 014 */   private org.apache.spark.sql.catalyst.expressions.codegen.UnsafeRowWriter project_rowWriter;
/* 015 */
/* 016 */   public GeneratedIterator(Object[] references) {
/* 017 */     this.references = references;
/* 018 */   }
/* 019 */
/* 020 */   public void init(int index, scala.collection.Iterator inputs[]) {
/* 021 */     partitionIndex = index;
/* 022 */     inputadapter_input = inputs[0];
/* 023 */     this.filter_numOutputRows = (org.apache.spark.sql.execution.metric.SQLMetric) references[0];
/* 024 */     filter_result = new UnsafeRow(3);
/* 025 */     this.filter_holder = new org.apache.spark.sql.catalyst.expressions.codegen.BufferHolder(filter_result, 32);
/* 026 */     this.filter_rowWriter = new org.apache.spark.sql.catalyst.expressions.codegen.UnsafeRowWriter(filter_holder, 3);
/* 027 */     project_result = new UnsafeRow(1);
/* 028 */     this.project_holder = new org.apache.spark.sql.catalyst.expressions.codegen.BufferHolder(project_result, 32);
/* 029 */     this.project_rowWriter = new org.apache.spark.sql.catalyst.expressions.codegen.UnsafeRowWriter(project_holder, 1);
/* 030 */   }
/* 031 */
/* 032 */   protected void processNext() throws java.io.IOException {
/* 033 */     while (inputadapter_input.hasNext()) {
/* 034 */       InternalRow inputadapter_row = (InternalRow) inputadapter_input.next();
/* 035 */       boolean inputadapter_isNull2 = inputadapter_row.isNullAt(2);
/* 036 */       int inputadapter_value2 = inputadapter_isNull2 ? -1 : (inputadapter_row.getInt(2));
/* 037 */
/* 038 */       if (!(!(inputadapter_isNull2))) continue;
/* 039 */
/* 040 */       boolean filter_isNull2 = false;
/* 041 */
/* 042 */       boolean filter_value2 = false;
/* 043 */       filter_value2 = inputadapter_value2 == 1;
/* 044 */       if (!filter_value2) continue;
/* 045 */       boolean inputadapter_isNull1 = inputadapter_row.isNullAt(1);
/* 046 */       int inputadapter_value1 = inputadapter_isNull1 ? -1 : (inputadapter_row.getInt(1));
/* 047 */
/* 048 */       if (!(!(inputadapter_isNull1))) continue;
/* 049 */
/* 050 */       boolean filter_isNull7 = false;
/* 051 */
/* 052 */       boolean filter_isNull8 = inputadapter_isNull1;
/* 053 */       UTF8String filter_value8 = null;
/* 054 */       if (!inputadapter_isNull1) {
/* 055 */         filter_value8 = UTF8String.fromString(
/* 056 */           org.apache.spark.sql.catalyst.util.DateTimeUtils.dateToString(inputadapter_value1));
/* 057 */       }
/* 058 */
/* 059 */       Object filter_obj = ((Expression) references[1]).eval(null);
/* 060 */       UTF8String filter_value10 = (UTF8String) filter_obj;
/* 061 */       boolean filter_value7 = false;
/* 062 */       filter_value7 = filter_value8.compare(filter_value10) >= 0;
/* 063 */       if (!filter_value7) continue;
/* 064 */
/* 065 */       filter_numOutputRows.add(1);
/* 066 */
/* 067 */       boolean inputadapter_isNull = inputadapter_row.isNullAt(0);
/* 068 */       UTF8String inputadapter_value = inputadapter_isNull ? null : (inputadapter_row.getUTF8String(0));
/* 069 */       project_holder.reset();
/* 070 */
/* 071 */       project_rowWriter.zeroOutNullBytes();
/* 072 */
/* 073 */       if (inputadapter_isNull) {
/* 074 */         project_rowWriter.setNullAt(0);
/* 075 */       } else {
/* 076 */         project_rowWriter.write(0, inputadapter_value);
/* 077 */       }
/* 078 */       project_result.setTotalSize(project_holder.totalSize());
/* 079 */       append(project_result);
/* 080 */       if (shouldStop()) return;
/* 081 */     }
/* 082 */   }
/* 083 */ }

2017-09-25 05:07:03,993 [streaming-job-executor-0] DEBUG org.apache.spark.internal.Logging$class (Logging.scala:58) - 
/* 001 */ public Object generate(Object[] references) {
/* 002 */   return new GeneratedIterator(references);
/* 003 */ }
/* 004 */
/* 005 */ final class GeneratedIterator extends org.apache.spark.sql.execution.BufferedRowIterator {
/* 006 */   private Object[] references;
/* 007 */   private boolean sort_needToSort;
/* 008 */   private org.apache.spark.sql.execution.SortExec sort_plan;
/* 009 */   private org.apache.spark.sql.execution.UnsafeExternalRowSorter sort_sorter;
/* 010 */   private org.apache.spark.executor.TaskMetrics sort_metrics;
/* 011 */   private scala.collection.Iterator<UnsafeRow> sort_sortedIter;
/* 012 */   private scala.collection.Iterator inputadapter_input;
/* 013 */   private org.apache.spark.sql.execution.metric.SQLMetric sort_peakMemory;
/* 014 */   private org.apache.spark.sql.execution.metric.SQLMetric sort_spillSize;
/* 015 */   private org.apache.spark.sql.execution.metric.SQLMetric sort_sortTime;
/* 016 */
/* 017 */   public GeneratedIterator(Object[] references) {
/* 018 */     this.references = references;
/* 019 */   }
/* 020 */
/* 021 */   public void init(int index, scala.collection.Iterator inputs[]) {
/* 022 */     partitionIndex = index;
/* 023 */     sort_needToSort = true;
/* 024 */     this.sort_plan = (org.apache.spark.sql.execution.SortExec) references[0];
/* 025 */     sort_sorter = sort_plan.createSorter();
/* 026 */     sort_metrics = org.apache.spark.TaskContext.get().taskMetrics();
/* 027 */
/* 028 */     inputadapter_input = inputs[0];
/* 029 */     this.sort_peakMemory = (org.apache.spark.sql.execution.metric.SQLMetric) references[1];
/* 030 */     this.sort_spillSize = (org.apache.spark.sql.execution.metric.SQLMetric) references[2];
/* 031 */     this.sort_sortTime = (org.apache.spark.sql.execution.metric.SQLMetric) references[3];
/* 032 */   }
/* 033 */
/* 034 */   private void sort_addToSorter() throws java.io.IOException {
/* 035 */     while (inputadapter_input.hasNext()) {
/* 036 */       InternalRow inputadapter_row = (InternalRow) inputadapter_input.next();
/* 037 */       sort_sorter.insertRow((UnsafeRow)inputadapter_row);
/* 038 */       if (shouldStop()) return;
/* 039 */     }
/* 040 */
/* 041 */   }
/* 042 */
/* 043 */   protected void processNext() throws java.io.IOException {
/* 044 */     if (sort_needToSort) {
/* 045 */       long sort_spillSizeBefore = sort_metrics.memoryBytesSpilled();
/* 046 */       sort_addToSorter();
/* 047 */       sort_sortedIter = sort_sorter.sort();
/* 048 */       sort_sortTime.add(sort_sorter.getSortTimeNanos() / 1000000);
/* 049 */       sort_peakMemory.add(sort_sorter.getPeakMemoryUsage());
/* 050 */       sort_spillSize.add(sort_metrics.memoryBytesSpilled() - sort_spillSizeBefore);
/* 051 */       sort_metrics.incPeakExecutionMemory(sort_sorter.getPeakMemoryUsage());
/* 052 */       sort_needToSort = false;
/* 053 */     }
/* 054 */
/* 055 */     while (sort_sortedIter.hasNext()) {
/* 056 */       UnsafeRow sort_outputRow = (UnsafeRow)sort_sortedIter.next();
/* 057 */
/* 058 */       append(sort_outputRow);
/* 059 */
/* 060 */       if (shouldStop()) return;
/* 061 */     }
/* 062 */   }
/* 063 */ }

2017-09-25 05:07:04,005 [streaming-job-executor-0] DEBUG org.apache.spark.internal.Logging$class (Logging.scala:58) - 
=== Result of Batch CleanExpressions ===
!to_date(cast(input[1, string, true] as date)) AS createdat#124544   to_date(cast(input[1, string, true] as date))
!+- to_date(cast(input[1, string, true] as date))                    +- cast(input[1, string, true] as date)
!   +- cast(input[1, string, true] as date)                             +- input[1, string, true]
!      +- input[1, string, true]                                     
        
2017-09-25 05:07:04,006 [streaming-job-executor-0] DEBUG org.apache.spark.internal.Logging$class (Logging.scala:58) - 
/* 001 */ public Object generate(Object[] references) {
/* 002 */   return new GeneratedIterator(references);
/* 003 */ }
/* 004 */
/* 005 */ final class GeneratedIterator extends org.apache.spark.sql.execution.BufferedRowIterator {
/* 006 */   private Object[] references;
/* 007 */   private scala.collection.Iterator inputadapter_input;
/* 008 */   private org.apache.spark.sql.execution.metric.SQLMetric filter_numOutputRows;
/* 009 */   private UnsafeRow filter_result;
/* 010 */   private org.apache.spark.sql.catalyst.expressions.codegen.BufferHolder filter_holder;
/* 011 */   private org.apache.spark.sql.catalyst.expressions.codegen.UnsafeRowWriter filter_rowWriter;
/* 012 */   private UnsafeRow project_result;
/* 013 */   private org.apache.spark.sql.catalyst.expressions.codegen.BufferHolder project_holder;
/* 014 */   private org.apache.spark.sql.catalyst.expressions.codegen.UnsafeRowWriter project_rowWriter;
/* 015 */
/* 016 */   public GeneratedIterator(Object[] references) {
/* 017 */     this.references = references;
/* 018 */   }
/* 019 */
/* 020 */   public void init(int index, scala.collection.Iterator inputs[]) {
/* 021 */     partitionIndex = index;
/* 022 */     inputadapter_input = inputs[0];
/* 023 */     this.filter_numOutputRows = (org.apache.spark.sql.execution.metric.SQLMetric) references[0];
/* 024 */     filter_result = new UnsafeRow(2);
/* 025 */     this.filter_holder = new org.apache.spark.sql.catalyst.expressions.codegen.BufferHolder(filter_result, 64);
/* 026 */     this.filter_rowWriter = new org.apache.spark.sql.catalyst.expressions.codegen.UnsafeRowWriter(filter_holder, 2);
/* 027 */     project_result = new UnsafeRow(2);
/* 028 */     this.project_holder = new org.apache.spark.sql.catalyst.expressions.codegen.BufferHolder(project_result, 32);
/* 029 */     this.project_rowWriter = new org.apache.spark.sql.catalyst.expressions.codegen.UnsafeRowWriter(project_holder, 2);
/* 030 */   }
/* 031 */
/* 032 */   protected void processNext() throws java.io.IOException {
/* 033 */     while (inputadapter_input.hasNext()) {
/* 034 */       InternalRow inputadapter_row = (InternalRow) inputadapter_input.next();
/* 035 */       boolean inputadapter_isNull = inputadapter_row.isNullAt(0);
/* 036 */       UTF8String inputadapter_value = inputadapter_isNull ? null : (inputadapter_row.getUTF8String(0));
/* 037 */
/* 038 */       if (!(!(inputadapter_isNull))) continue;
/* 039 */
/* 040 */       filter_numOutputRows.add(1);
/* 041 */
/* 042 */       boolean inputadapter_isNull1 = inputadapter_row.isNullAt(1);
/* 043 */       UTF8String inputadapter_value1 = inputadapter_isNull1 ? null : (inputadapter_row.getUTF8String(1));
/* 044 */       boolean project_isNull2 = inputadapter_isNull1;
/* 045 */       int project_value2 = -1;
/* 046 */       if (!inputadapter_isNull1) {
/* 047 */         scala.Option<Integer> project_intOpt =
/* 048 */         org.apache.spark.sql.catalyst.util.DateTimeUtils.stringToDate(inputadapter_value1);
/* 049 */         if (project_intOpt.isDefined()) {
/* 050 */           project_value2 = ((Integer) project_intOpt.get()).intValue();
/* 051 */         } else {
/* 052 */           project_isNull2 = true;
/* 053 */         }
/* 054 */
/* 055 */       }
/* 056 */       boolean project_isNull1 = project_isNull2;
/* 057 */       int project_value1 = -1;
/* 058 */
/* 059 */       if (!project_isNull2) {
/* 060 */         project_value1 = project_value2;
/* 061 */       }
/* 062 */       project_holder.reset();
/* 063 */
/* 064 */       project_rowWriter.zeroOutNullBytes();
/* 065 */
/* 066 */       project_rowWriter.write(0, inputadapter_value);
/* 067 */
/* 068 */       if (project_isNull1) {
/* 069 */         project_rowWriter.setNullAt(1);
/* 070 */       } else {
/* 071 */         project_rowWriter.write(1, project_value1);
/* 072 */       }
/* 073 */       project_result.setTotalSize(project_holder.totalSize());
/* 074 */       append(project_result);
/* 075 */       if (shouldStop()) return;
/* 076 */     }
/* 077 */   }
/* 078 */ }

2017-09-25 05:07:04,007 [streaming-job-executor-0] DEBUG org.apache.spark.internal.Logging$class (Logging.scala:58) - +++ Cleaning closure <function2> (org.apache.spark.sql.execution.WholeStageCodegenExec$$anonfun$8) +++
2017-09-25 05:07:04,008 [streaming-job-executor-0] DEBUG org.apache.spark.internal.Logging$class (Logging.scala:58) -  + declared fields: 4
2017-09-25 05:07:04,008 [streaming-job-executor-0] DEBUG org.apache.spark.internal.Logging$class (Logging.scala:58) -      public static final long org.apache.spark.sql.execution.WholeStageCodegenExec$$anonfun$8.serialVersionUID
2017-09-25 05:07:04,008 [streaming-job-executor-0] DEBUG org.apache.spark.internal.Logging$class (Logging.scala:58) -      private final org.apache.spark.sql.catalyst.expressions.codegen.CodeAndComment org.apache.spark.sql.execution.WholeStageCodegenExec$$anonfun$8.cleanedSource$2
2017-09-25 05:07:04,008 [streaming-job-executor-0] DEBUG org.apache.spark.internal.Logging$class (Logging.scala:58) -      private final java.lang.Object[] org.apache.spark.sql.execution.WholeStageCodegenExec$$anonfun$8.references$1
2017-09-25 05:07:04,008 [streaming-job-executor-0] DEBUG org.apache.spark.internal.Logging$class (Logging.scala:58) -      public final org.apache.spark.sql.execution.metric.SQLMetric org.apache.spark.sql.execution.WholeStageCodegenExec$$anonfun$8.durationMs$1
2017-09-25 05:07:04,008 [streaming-job-executor-0] DEBUG org.apache.spark.internal.Logging$class (Logging.scala:58) -  + declared methods: 2
2017-09-25 05:07:04,008 [streaming-job-executor-0] DEBUG org.apache.spark.internal.Logging$class (Logging.scala:58) -      public final java.lang.Object org.apache.spark.sql.execution.WholeStageCodegenExec$$anonfun$8.apply(java.lang.Object,java.lang.Object)
2017-09-25 05:07:04,009 [streaming-job-executor-0] DEBUG org.apache.spark.internal.Logging$class (Logging.scala:58) -      public final scala.collection.Iterator org.apache.spark.sql.execution.WholeStageCodegenExec$$anonfun$8.apply(int,scala.collection.Iterator)
2017-09-25 05:07:04,009 [streaming-job-executor-0] DEBUG org.apache.spark.internal.Logging$class (Logging.scala:58) -  + inner classes: 1
2017-09-25 05:07:04,009 [streaming-job-executor-0] DEBUG org.apache.spark.internal.Logging$class (Logging.scala:58) -      org.apache.spark.sql.execution.WholeStageCodegenExec$$anonfun$8$$anon$1
2017-09-25 05:07:04,029 [streaming-job-executor-0] DEBUG org.apache.spark.internal.Logging$class (Logging.scala:58) -  + outer classes: 0
2017-09-25 05:07:04,030 [streaming-job-executor-0] DEBUG org.apache.spark.internal.Logging$class (Logging.scala:58) -  + outer objects: 0
2017-09-25 05:07:04,030 [streaming-job-executor-0] DEBUG org.apache.spark.internal.Logging$class (Logging.scala:58) -  + populating accessed fields because this is the starting closure
2017-09-25 05:07:04,031 [streaming-job-executor-0] DEBUG org.apache.spark.internal.Logging$class (Logging.scala:58) -  + fields accessed by starting closure: 0
2017-09-25 05:07:04,031 [streaming-job-executor-0] DEBUG org.apache.spark.internal.Logging$class (Logging.scala:58) -  + there are no enclosing objects!
2017-09-25 05:07:04,031 [streaming-job-executor-0] DEBUG org.apache.spark.internal.Logging$class (Logging.scala:58) -  +++ closure <function2> (org.apache.spark.sql.execution.WholeStageCodegenExec$$anonfun$8) is now cleaned +++
2017-09-25 05:07:04,032 [streaming-job-executor-0] DEBUG com.datastax.spark.connector.util.Logging$class (Logging.scala:39) - Attempting to open native connection to Cassandra at {52.3.231.48}:9042
2017-09-25 05:07:04,032 [streaming-job-executor-0] DEBUG com.datastax.driver.core.SystemProperties (SystemProperties.java:48) - com.datastax.driver.USE_NATIVE_CLOCK is undefined, using default value true
2017-09-25 05:07:04,033 [streaming-job-executor-0] INFO  com.datastax.driver.core.ClockFactory (Clock.java:52) - Using native clock to generate timestamps.
2017-09-25 05:07:04,033 [streaming-job-executor-0] DEBUG com.datastax.driver.core.Cluster$Manager (Cluster.java:1380) - Starting new cluster with contact points [/52.3.231.48:9042]
2017-09-25 05:07:04,055 [streaming-job-executor-0] DEBUG com.datastax.driver.core.ConvictionPolicy$DefaultConvictionPolicy (ConvictionPolicy.java:88) - [/52.3.231.48:9042] preparing to open 1 new connections, total = 1
2017-09-25 05:07:04,056 [cluster770-nio-worker-0] DEBUG com.datastax.driver.core.Connection$1 (Connection.java:168) - Connection[/52.3.231.48:9042-1, inFlight=0, closed=false] Connection established, initializing transport
2017-09-25 05:07:04,057 [cluster770-nio-worker-0] DEBUG com.datastax.driver.core.Connection (Connection.java:321) - [/52.3.231.48:9042] Connection[/52.3.231.48:9042-1, inFlight=0, closed=false] Transport initialized, connection ready
2017-09-25 05:07:04,058 [streaming-job-executor-0] DEBUG com.datastax.driver.core.ControlConnection (ControlConnection.java:537) - [Control connection] Refreshing node list and token map
2017-09-25 05:07:04,059 [streaming-job-executor-0] DEBUG com.datastax.driver.core.ControlConnection (ControlConnection.java:276) - [Control connection] Refreshing schema
2017-09-25 05:07:04,384 [streaming-job-executor-0] DEBUG com.datastax.driver.core.ControlConnection (ControlConnection.java:183) - [Control connection] established to /52.3.231.48:9042
2017-09-25 05:07:04,384 [streaming-job-executor-0] INFO  com.datastax.driver.core.Cluster$Manager (Cluster.java:1543) - New Cassandra host /52.3.231.48:9042 added
2017-09-25 05:07:04,385 [streaming-job-executor-0] INFO  com.datastax.spark.connector.util.Logging$class (Logging.scala:35) - Connected to Cassandra cluster: Test Cluster
2017-09-25 05:07:04,385 [streaming-job-executor-0] DEBUG com.datastax.driver.core.ConvictionPolicy$DefaultConvictionPolicy (ConvictionPolicy.java:88) - [/52.3.231.48:9042] preparing to open 1 new connections, total = 2
2017-09-25 05:07:04,406 [cluster770-nio-worker-2] DEBUG com.datastax.driver.core.Connection$1 (Connection.java:168) - Connection[/52.3.231.48:9042-2, inFlight=0, closed=false] Connection established, initializing transport
2017-09-25 05:07:04,408 [cluster770-nio-worker-2] DEBUG com.datastax.driver.core.Connection (Connection.java:321) - [/52.3.231.48:9042] Connection[/52.3.231.48:9042-2, inFlight=0, closed=false] Transport initialized, connection ready
2017-09-25 05:07:04,408 [cluster770-nio-worker-2] DEBUG com.datastax.driver.core.HostConnectionPool$2 (HostConnectionPool.java:152) - Created connection pool to host /52.3.231.48:9042 (1 connections needed, 1 successfully opened)
2017-09-25 05:07:04,408 [cluster770-nio-worker-2] DEBUG com.datastax.driver.core.SessionManager$7 (SessionManager.java:364) - Added connection pool for /52.3.231.48:9042
2017-09-25 05:07:04,409 [streaming-job-executor-0] DEBUG com.datastax.spark.connector.util.Logging$class (Logging.scala:39) - Retrieving database schema from cluster Test Cluster...
2017-09-25 05:07:04,410 [streaming-job-executor-0] DEBUG com.datastax.spark.connector.util.Logging$class (Logging.scala:39) - 1 keyspaces fetched from cluster Test Cluster: {wisestepdb}
2017-09-25 05:07:04,420 [streaming-job-executor-0] DEBUG com.datastax.spark.connector.util.Logging$class (Logging.scala:39) - Estimated size of wisestepdb.jobcandidateinteractionnotes is 413952 bytes
2017-09-25 05:07:04,422 [streaming-job-executor-0] DEBUG org.apache.spark.internal.Logging$class (Logging.scala:58) - Created total 6 partitions for wisestepdb.jobcandidateinteractionnotes.
2017-09-25 05:07:04,423 [streaming-job-executor-0] DEBUG org.apache.spark.internal.Logging$class (Logging.scala:58) - +++ Cleaning closure <function2> (org.apache.spark.sql.execution.WholeStageCodegenExec$$anonfun$8) +++
2017-09-25 05:07:04,424 [streaming-job-executor-0] DEBUG org.apache.spark.internal.Logging$class (Logging.scala:58) -  + declared fields: 4
2017-09-25 05:07:04,425 [streaming-job-executor-0] DEBUG org.apache.spark.internal.Logging$class (Logging.scala:58) -      public static final long org.apache.spark.sql.execution.WholeStageCodegenExec$$anonfun$8.serialVersionUID
2017-09-25 05:07:04,425 [streaming-job-executor-0] DEBUG org.apache.spark.internal.Logging$class (Logging.scala:58) -      private final org.apache.spark.sql.catalyst.expressions.codegen.CodeAndComment org.apache.spark.sql.execution.WholeStageCodegenExec$$anonfun$8.cleanedSource$2
2017-09-25 05:07:04,425 [streaming-job-executor-0] DEBUG org.apache.spark.internal.Logging$class (Logging.scala:58) -      private final java.lang.Object[] org.apache.spark.sql.execution.WholeStageCodegenExec$$anonfun$8.references$1
2017-09-25 05:07:04,425 [streaming-job-executor-0] DEBUG org.apache.spark.internal.Logging$class (Logging.scala:58) -      public final org.apache.spark.sql.execution.metric.SQLMetric org.apache.spark.sql.execution.WholeStageCodegenExec$$anonfun$8.durationMs$1
2017-09-25 05:07:04,425 [streaming-job-executor-0] DEBUG org.apache.spark.internal.Logging$class (Logging.scala:58) -  + declared methods: 2
2017-09-25 05:07:04,425 [streaming-job-executor-0] DEBUG org.apache.spark.internal.Logging$class (Logging.scala:58) -      public final java.lang.Object org.apache.spark.sql.execution.WholeStageCodegenExec$$anonfun$8.apply(java.lang.Object,java.lang.Object)
2017-09-25 05:07:04,425 [streaming-job-executor-0] DEBUG org.apache.spark.internal.Logging$class (Logging.scala:58) -      public final scala.collection.Iterator org.apache.spark.sql.execution.WholeStageCodegenExec$$anonfun$8.apply(int,scala.collection.Iterator)
2017-09-25 05:07:04,425 [streaming-job-executor-0] DEBUG org.apache.spark.internal.Logging$class (Logging.scala:58) -  + inner classes: 1
2017-09-25 05:07:04,425 [streaming-job-executor-0] DEBUG org.apache.spark.internal.Logging$class (Logging.scala:58) -      org.apache.spark.sql.execution.WholeStageCodegenExec$$anonfun$8$$anon$1
2017-09-25 05:07:04,426 [streaming-job-executor-0] DEBUG org.apache.spark.internal.Logging$class (Logging.scala:58) -  + outer classes: 0
2017-09-25 05:07:04,426 [streaming-job-executor-0] DEBUG org.apache.spark.internal.Logging$class (Logging.scala:58) -  + outer objects: 0
2017-09-25 05:07:04,426 [streaming-job-executor-0] DEBUG org.apache.spark.internal.Logging$class (Logging.scala:58) -  + populating accessed fields because this is the starting closure
2017-09-25 05:07:04,451 [streaming-job-executor-0] DEBUG org.apache.spark.internal.Logging$class (Logging.scala:58) -  + fields accessed by starting closure: 0
2017-09-25 05:07:04,451 [streaming-job-executor-0] DEBUG org.apache.spark.internal.Logging$class (Logging.scala:58) -  + there are no enclosing objects!
2017-09-25 05:07:04,451 [streaming-job-executor-0] DEBUG org.apache.spark.internal.Logging$class (Logging.scala:58) -  +++ closure <function2> (org.apache.spark.sql.execution.WholeStageCodegenExec$$anonfun$8) is now cleaned +++
2017-09-25 05:07:04,452 [streaming-job-executor-0] DEBUG org.apache.spark.internal.Logging$class (Logging.scala:58) - +++ Cleaning closure <function1> (org.apache.spark.sql.execution.WindowExec$$anonfun$15) +++
2017-09-25 05:07:04,454 [streaming-job-executor-0] DEBUG org.apache.spark.internal.Logging$class (Logging.scala:58) -  + declared fields: 4
2017-09-25 05:07:04,454 [streaming-job-executor-0] DEBUG org.apache.spark.internal.Logging$class (Logging.scala:58) -      public static final long org.apache.spark.sql.execution.WindowExec$$anonfun$15.serialVersionUID
2017-09-25 05:07:04,454 [streaming-job-executor-0] DEBUG org.apache.spark.internal.Logging$class (Logging.scala:58) -      private final org.apache.spark.sql.execution.WindowExec org.apache.spark.sql.execution.WindowExec$$anonfun$15.$outer
2017-09-25 05:07:04,454 [streaming-job-executor-0] DEBUG org.apache.spark.internal.Logging$class (Logging.scala:58) -      public final scala.collection.Seq org.apache.spark.sql.execution.WindowExec$$anonfun$15.expressions$1
2017-09-25 05:07:04,454 [streaming-job-executor-0] DEBUG org.apache.spark.internal.Logging$class (Logging.scala:58) -      public final scala.Function1[] org.apache.spark.sql.execution.WindowExec$$anonfun$15.factories$1
2017-09-25 05:07:04,454 [streaming-job-executor-0] DEBUG org.apache.spark.internal.Logging$class (Logging.scala:58) -  + declared methods: 3
2017-09-25 05:07:04,455 [streaming-job-executor-0] DEBUG org.apache.spark.internal.Logging$class (Logging.scala:58) -      public org.apache.spark.sql.execution.WindowExec org.apache.spark.sql.execution.WindowExec$$anonfun$15.org$apache$spark$sql$execution$WindowExec$$anonfun$$$outer()
2017-09-25 05:07:04,455 [streaming-job-executor-0] DEBUG org.apache.spark.internal.Logging$class (Logging.scala:58) -      public final scala.collection.Iterator org.apache.spark.sql.execution.WindowExec$$anonfun$15.apply(scala.collection.Iterator)
2017-09-25 05:07:04,455 [streaming-job-executor-0] DEBUG org.apache.spark.internal.Logging$class (Logging.scala:58) -      public final java.lang.Object org.apache.spark.sql.execution.WindowExec$$anonfun$15.apply(java.lang.Object)
2017-09-25 05:07:04,475 [streaming-job-executor-0] DEBUG org.apache.spark.internal.Logging$class (Logging.scala:58) -  + inner classes: 4
2017-09-25 05:07:04,475 [streaming-job-executor-0] DEBUG org.apache.spark.internal.Logging$class (Logging.scala:58) -      org.apache.spark.sql.execution.WindowExec$$anonfun$15$$anon$1$$anonfun$16
2017-09-25 05:07:04,476 [streaming-job-executor-0] DEBUG org.apache.spark.internal.Logging$class (Logging.scala:58) -      org.apache.spark.sql.execution.WindowExec$$anonfun$15$$anon$1
2017-09-25 05:07:04,476 [streaming-job-executor-0] DEBUG org.apache.spark.internal.Logging$class (Logging.scala:58) -      org.apache.spark.sql.execution.WindowExec$$anonfun$15$$anon$1$$anonfun$17
2017-09-25 05:07:04,476 [streaming-job-executor-0] DEBUG org.apache.spark.internal.Logging$class (Logging.scala:58) -      org.apache.spark.sql.execution.WindowExec$$anonfun$15$$anon$1$$anonfun$fetchNextPartition$1
2017-09-25 05:07:04,476 [streaming-job-executor-0] DEBUG org.apache.spark.internal.Logging$class (Logging.scala:58) -  + outer classes: 1
2017-09-25 05:07:04,476 [streaming-job-executor-0] DEBUG org.apache.spark.internal.Logging$class (Logging.scala:58) -      org.apache.spark.sql.execution.WindowExec
2017-09-25 05:07:04,476 [streaming-job-executor-0] DEBUG org.apache.spark.internal.Logging$class (Logging.scala:58) -  + outer objects: 1
2017-09-25 05:07:04,477 [streaming-job-executor-0] DEBUG org.apache.spark.internal.Logging$class (Logging.scala:58) -      Window [rownumber() windowspecdefinition(jobcandidateinteractionid#124512, createdat#124544 ASC, ROWS BETWEEN UNBOUNDED PRECEDING AND CURRENT ROW) AS rn#124549], [jobcandidateinteractionid#124512], [createdat#124544 ASC]
+- *Sort [jobcandidateinteractionid#124512 ASC, createdat#124544 ASC], false, 0
   +- Exchange hashpartitioning(jobcandidateinteractionid#124512, 4)
      +- *Project [jobcandidateinteractionid#124512, to_date(cast(createdat#124513 as date)) AS createdat#124544]
         +- *Filter isnotnull(jobcandidateinteractionid#124512)
            +- InMemoryTableScan [jobcandidateinteractionid#124512, createdat#124513], [isnotnull(jobcandidateinteractionid#124512)]
               :  +- InMemoryRelation [jobcandidateinteractionid#124512, createdat#124513], true, 10000, StorageLevel(disk, memory, deserialized, 1 replicas)
               :     :  +- *Project [_1#124509 AS jobcandidateinteractionid#124512, _2#124510 AS createdat#124513]
               :     :     +- Scan ExistingRDD[_1#124509,_2#124510]

2017-09-25 05:07:04,477 [streaming-job-executor-0] DEBUG org.apache.spark.internal.Logging$class (Logging.scala:58) -  + populating accessed fields because this is the starting closure
2017-09-25 05:07:04,496 [streaming-job-executor-0] DEBUG org.apache.spark.internal.Logging$class (Logging.scala:58) -  + fields accessed by starting closure: 1
2017-09-25 05:07:04,496 [streaming-job-executor-0] DEBUG org.apache.spark.internal.Logging$class (Logging.scala:58) -      (class org.apache.spark.sql.execution.WindowExec,Set(windowExpression, partitionSpec, child))
2017-09-25 05:07:04,497 [streaming-job-executor-0] DEBUG org.apache.spark.internal.Logging$class (Logging.scala:58) -  + outermost object is not a closure or REPL line object, so do not clone it: (class org.apache.spark.sql.execution.WindowExec,Window [rownumber() windowspecdefinition(jobcandidateinteractionid#124512, createdat#124544 ASC, ROWS BETWEEN UNBOUNDED PRECEDING AND CURRENT ROW) AS rn#124549], [jobcandidateinteractionid#124512], [createdat#124544 ASC]
+- *Sort [jobcandidateinteractionid#124512 ASC, createdat#124544 ASC], false, 0
   +- Exchange hashpartitioning(jobcandidateinteractionid#124512, 4)
      +- *Project [jobcandidateinteractionid#124512, to_date(cast(createdat#124513 as date)) AS createdat#124544]
         +- *Filter isnotnull(jobcandidateinteractionid#124512)
            +- InMemoryTableScan [jobcandidateinteractionid#124512, createdat#124513], [isnotnull(jobcandidateinteractionid#124512)]
               :  +- InMemoryRelation [jobcandidateinteractionid#124512, createdat#124513], true, 10000, StorageLevel(disk, memory, deserialized, 1 replicas)
               :     :  +- *Project [_1#124509 AS jobcandidateinteractionid#124512, _2#124510 AS createdat#124513]
               :     :     +- Scan ExistingRDD[_1#124509,_2#124510]
)
2017-09-25 05:07:04,497 [streaming-job-executor-0] DEBUG org.apache.spark.internal.Logging$class (Logging.scala:58) -  +++ closure <function1> (org.apache.spark.sql.execution.WindowExec$$anonfun$15) is now cleaned +++
2017-09-25 05:07:04,498 [streaming-job-executor-0] DEBUG org.apache.spark.internal.Logging$class (Logging.scala:58) - +++ Cleaning closure <function2> (org.apache.spark.sql.execution.WholeStageCodegenExec$$anonfun$8) +++
2017-09-25 05:07:04,498 [streaming-job-executor-0] DEBUG org.apache.spark.internal.Logging$class (Logging.scala:58) -  + declared fields: 4
2017-09-25 05:07:04,498 [streaming-job-executor-0] DEBUG org.apache.spark.internal.Logging$class (Logging.scala:58) -      public static final long org.apache.spark.sql.execution.WholeStageCodegenExec$$anonfun$8.serialVersionUID
2017-09-25 05:07:04,499 [streaming-job-executor-0] DEBUG org.apache.spark.internal.Logging$class (Logging.scala:58) -      private final org.apache.spark.sql.catalyst.expressions.codegen.CodeAndComment org.apache.spark.sql.execution.WholeStageCodegenExec$$anonfun$8.cleanedSource$2
2017-09-25 05:07:04,499 [streaming-job-executor-0] DEBUG org.apache.spark.internal.Logging$class (Logging.scala:58) -      private final java.lang.Object[] org.apache.spark.sql.execution.WholeStageCodegenExec$$anonfun$8.references$1
2017-09-25 05:07:04,499 [streaming-job-executor-0] DEBUG org.apache.spark.internal.Logging$class (Logging.scala:58) -      public final org.apache.spark.sql.execution.metric.SQLMetric org.apache.spark.sql.execution.WholeStageCodegenExec$$anonfun$8.durationMs$1
2017-09-25 05:07:04,499 [streaming-job-executor-0] DEBUG org.apache.spark.internal.Logging$class (Logging.scala:58) -  + declared methods: 2
2017-09-25 05:07:04,499 [streaming-job-executor-0] DEBUG org.apache.spark.internal.Logging$class (Logging.scala:58) -      public final java.lang.Object org.apache.spark.sql.execution.WholeStageCodegenExec$$anonfun$8.apply(java.lang.Object,java.lang.Object)
2017-09-25 05:07:04,499 [streaming-job-executor-0] DEBUG org.apache.spark.internal.Logging$class (Logging.scala:58) -      public final scala.collection.Iterator org.apache.spark.sql.execution.WholeStageCodegenExec$$anonfun$8.apply(int,scala.collection.Iterator)
2017-09-25 05:07:04,499 [streaming-job-executor-0] DEBUG org.apache.spark.internal.Logging$class (Logging.scala:58) -  + inner classes: 1
2017-09-25 05:07:04,499 [streaming-job-executor-0] DEBUG org.apache.spark.internal.Logging$class (Logging.scala:58) -      org.apache.spark.sql.execution.WholeStageCodegenExec$$anonfun$8$$anon$1
2017-09-25 05:07:04,499 [streaming-job-executor-0] DEBUG org.apache.spark.internal.Logging$class (Logging.scala:58) -  + outer classes: 0
2017-09-25 05:07:04,499 [streaming-job-executor-0] DEBUG org.apache.spark.internal.Logging$class (Logging.scala:58) -  + outer objects: 0
2017-09-25 05:07:04,520 [streaming-job-executor-0] DEBUG org.apache.spark.internal.Logging$class (Logging.scala:58) -  + populating accessed fields because this is the starting closure
2017-09-25 05:07:04,521 [streaming-job-executor-0] DEBUG org.apache.spark.internal.Logging$class (Logging.scala:58) -  + fields accessed by starting closure: 0
2017-09-25 05:07:04,521 [streaming-job-executor-0] DEBUG org.apache.spark.internal.Logging$class (Logging.scala:58) -  + there are no enclosing objects!
2017-09-25 05:07:04,521 [streaming-job-executor-0] DEBUG org.apache.spark.internal.Logging$class (Logging.scala:58) -  +++ closure <function2> (org.apache.spark.sql.execution.WholeStageCodegenExec$$anonfun$8) is now cleaned +++
2017-09-25 05:07:04,522 [streaming-job-executor-0] DEBUG org.apache.spark.internal.Logging$class (Logging.scala:58) - 
/* 001 */ public Object generate(Object[] references) {
/* 002 */   return new GeneratedIterator(references);
/* 003 */ }
/* 004 */
/* 005 */ final class GeneratedIterator extends org.apache.spark.sql.execution.BufferedRowIterator {
/* 006 */   private Object[] references;
/* 007 */   private boolean sort_needToSort;
/* 008 */   private org.apache.spark.sql.execution.SortExec sort_plan;
/* 009 */   private org.apache.spark.sql.execution.UnsafeExternalRowSorter sort_sorter;
/* 010 */   private org.apache.spark.executor.TaskMetrics sort_metrics;
/* 011 */   private scala.collection.Iterator<UnsafeRow> sort_sortedIter;
/* 012 */   private scala.collection.Iterator inputadapter_input;
/* 013 */   private org.apache.spark.sql.execution.metric.SQLMetric sort_peakMemory;
/* 014 */   private org.apache.spark.sql.execution.metric.SQLMetric sort_spillSize;
/* 015 */   private org.apache.spark.sql.execution.metric.SQLMetric sort_sortTime;
/* 016 */
/* 017 */   public GeneratedIterator(Object[] references) {
/* 018 */     this.references = references;
/* 019 */   }
/* 020 */
/* 021 */   public void init(int index, scala.collection.Iterator inputs[]) {
/* 022 */     partitionIndex = index;
/* 023 */     sort_needToSort = true;
/* 024 */     this.sort_plan = (org.apache.spark.sql.execution.SortExec) references[0];
/* 025 */     sort_sorter = sort_plan.createSorter();
/* 026 */     sort_metrics = org.apache.spark.TaskContext.get().taskMetrics();
/* 027 */
/* 028 */     inputadapter_input = inputs[0];
/* 029 */     this.sort_peakMemory = (org.apache.spark.sql.execution.metric.SQLMetric) references[1];
/* 030 */     this.sort_spillSize = (org.apache.spark.sql.execution.metric.SQLMetric) references[2];
/* 031 */     this.sort_sortTime = (org.apache.spark.sql.execution.metric.SQLMetric) references[3];
/* 032 */   }
/* 033 */
/* 034 */   private void sort_addToSorter() throws java.io.IOException {
/* 035 */     while (inputadapter_input.hasNext()) {
/* 036 */       InternalRow inputadapter_row = (InternalRow) inputadapter_input.next();
/* 037 */       sort_sorter.insertRow((UnsafeRow)inputadapter_row);
/* 038 */       if (shouldStop()) return;
/* 039 */     }
/* 040 */
/* 041 */   }
/* 042 */
/* 043 */   protected void processNext() throws java.io.IOException {
/* 044 */     if (sort_needToSort) {
/* 045 */       long sort_spillSizeBefore = sort_metrics.memoryBytesSpilled();
/* 046 */       sort_addToSorter();
/* 047 */       sort_sortedIter = sort_sorter.sort();
/* 048 */       sort_sortTime.add(sort_sorter.getSortTimeNanos() / 1000000);
/* 049 */       sort_peakMemory.add(sort_sorter.getPeakMemoryUsage());
/* 050 */       sort_spillSize.add(sort_metrics.memoryBytesSpilled() - sort_spillSizeBefore);
/* 051 */       sort_metrics.incPeakExecutionMemory(sort_sorter.getPeakMemoryUsage());
/* 052 */       sort_needToSort = false;
/* 053 */     }
/* 054 */
/* 055 */     while (sort_sortedIter.hasNext()) {
/* 056 */       UnsafeRow sort_outputRow = (UnsafeRow)sort_sortedIter.next();
/* 057 */
/* 058 */       append(sort_outputRow);
/* 059 */
/* 060 */       if (shouldStop()) return;
/* 061 */     }
/* 062 */   }
/* 063 */ }

2017-09-25 05:07:04,523 [streaming-job-executor-0] DEBUG org.apache.spark.internal.Logging$class (Logging.scala:58) - 
=== Result of Batch CleanExpressions ===
!input[5, string, false] AS jobcandidateinteractionid#124528   input[5, string, false]
!+- input[5, string, false]                                    
        
2017-09-25 05:07:04,523 [streaming-job-executor-0] DEBUG org.apache.spark.internal.Logging$class (Logging.scala:58) - 
=== Result of Batch CleanExpressions ===
!to_date(cast(input[1, string, false] as date)) AS createdon#124536   to_date(cast(input[1, string, false] as date))
!+- to_date(cast(input[1, string, false] as date))                    +- cast(input[1, string, false] as date)
!   +- cast(input[1, string, false] as date)                             +- input[1, string, false]
!      +- input[1, string, false]                                     
        
2017-09-25 05:07:04,524 [streaming-job-executor-0] DEBUG org.apache.spark.internal.Logging$class (Logging.scala:58) - 
/* 001 */ public Object generate(Object[] references) {
/* 002 */   return new GeneratedIterator(references);
/* 003 */ }
/* 004 */
/* 005 */ final class GeneratedIterator extends org.apache.spark.sql.execution.BufferedRowIterator {
/* 006 */   private Object[] references;
/* 007 */   private scala.collection.Iterator inputadapter_input;
/* 008 */   private org.apache.spark.sql.execution.metric.SQLMetric filter_numOutputRows;
/* 009 */   private UnsafeRow filter_result;
/* 010 */   private org.apache.spark.sql.catalyst.expressions.codegen.BufferHolder filter_holder;
/* 011 */   private org.apache.spark.sql.catalyst.expressions.codegen.UnsafeRowWriter filter_rowWriter;
/* 012 */   private UnsafeRow project_result;
/* 013 */   private org.apache.spark.sql.catalyst.expressions.codegen.BufferHolder project_holder;
/* 014 */   private org.apache.spark.sql.catalyst.expressions.codegen.UnsafeRowWriter project_rowWriter;
/* 015 */
/* 016 */   public GeneratedIterator(Object[] references) {
/* 017 */     this.references = references;
/* 018 */   }
/* 019 */
/* 020 */   public void init(int index, scala.collection.Iterator inputs[]) {
/* 021 */     partitionIndex = index;
/* 022 */     inputadapter_input = inputs[0];
/* 023 */     this.filter_numOutputRows = (org.apache.spark.sql.execution.metric.SQLMetric) references[0];
/* 024 */     filter_result = new UnsafeRow(6);
/* 025 */     this.filter_holder = new org.apache.spark.sql.catalyst.expressions.codegen.BufferHolder(filter_result, 192);
/* 026 */     this.filter_rowWriter = new org.apache.spark.sql.catalyst.expressions.codegen.UnsafeRowWriter(filter_holder, 6);
/* 027 */     project_result = new UnsafeRow(5);
/* 028 */     this.project_holder = new org.apache.spark.sql.catalyst.expressions.codegen.BufferHolder(project_result, 128);
/* 029 */     this.project_rowWriter = new org.apache.spark.sql.catalyst.expressions.codegen.UnsafeRowWriter(project_holder, 5);
/* 030 */   }
/* 031 */
/* 032 */   protected void processNext() throws java.io.IOException {
/* 033 */     while (inputadapter_input.hasNext()) {
/* 034 */       InternalRow inputadapter_row = (InternalRow) inputadapter_input.next();
/* 035 */       boolean inputadapter_isNull5 = inputadapter_row.isNullAt(5);
/* 036 */       UTF8String inputadapter_value5 = inputadapter_isNull5 ? null : (inputadapter_row.getUTF8String(5));
/* 037 */
/* 038 */       if (!(!(inputadapter_isNull5))) continue;
/* 039 */
/* 040 */       boolean inputadapter_isNull4 = inputadapter_row.isNullAt(4);
/* 041 */       UTF8String inputadapter_value4 = inputadapter_isNull4 ? null : (inputadapter_row.getUTF8String(4));
/* 042 */
/* 043 */       if (!(!(inputadapter_isNull4))) continue;
/* 044 */
/* 045 */       boolean inputadapter_isNull2 = inputadapter_row.isNullAt(2);
/* 046 */       UTF8String inputadapter_value2 = inputadapter_isNull2 ? null : (inputadapter_row.getUTF8String(2));
/* 047 */
/* 048 */       if (!(!(inputadapter_isNull2))) continue;
/* 049 */
/* 050 */       boolean inputadapter_isNull1 = inputadapter_row.isNullAt(1);
/* 051 */       UTF8String inputadapter_value1 = inputadapter_isNull1 ? null : (inputadapter_row.getUTF8String(1));
/* 052 */
/* 053 */       if (!(!(inputadapter_isNull1))) continue;
/* 054 */
/* 055 */       boolean inputadapter_isNull = inputadapter_row.isNullAt(0);
/* 056 */       UTF8String inputadapter_value = inputadapter_isNull ? null : (inputadapter_row.getUTF8String(0));
/* 057 */
/* 058 */       if (!(!(inputadapter_isNull))) continue;
/* 059 */
/* 060 */       boolean inputadapter_isNull3 = inputadapter_row.isNullAt(3);
/* 061 */       UTF8String inputadapter_value3 = inputadapter_isNull3 ? null : (inputadapter_row.getUTF8String(3));
/* 062 */
/* 063 */       if (!(!(inputadapter_isNull3))) continue;
/* 064 */
/* 065 */       filter_numOutputRows.add(1);
/* 066 */
/* 067 */       boolean project_isNull4 = false;
/* 068 */       int project_value4 = -1;
/* 069 */       if (!false) {
/* 070 */         scala.Option<Integer> project_intOpt =
/* 071 */         org.apache.spark.sql.catalyst.util.DateTimeUtils.stringToDate(inputadapter_value1);
/* 072 */         if (project_intOpt.isDefined()) {
/* 073 */           project_value4 = ((Integer) project_intOpt.get()).intValue();
/* 074 */         } else {
/* 075 */           project_isNull4 = true;
/* 076 */         }
/* 077 */
/* 078 */       }
/* 079 */       boolean project_isNull3 = project_isNull4;
/* 080 */       int project_value3 = -1;
/* 081 */
/* 082 */       if (!project_isNull4) {
/* 083 */         project_value3 = project_value4;
/* 084 */       }
/* 085 */       project_holder.reset();
/* 086 */
/* 087 */       project_rowWriter.zeroOutNullBytes();
/* 088 */
/* 089 */       project_rowWriter.write(0, inputadapter_value5);
/* 090 */
/* 091 */       project_rowWriter.write(1, inputadapter_value4);
/* 092 */
/* 093 */       project_rowWriter.write(2, inputadapter_value2);
/* 094 */
/* 095 */       if (project_isNull3) {
/* 096 */         project_rowWriter.setNullAt(3);
/* 097 */       } else {
/* 098 */         project_rowWriter.write(3, project_value3);
/* 099 */       }
/* 100 */
/* 101 */       project_rowWriter.write(4, inputadapter_value3);
/* 102 */       project_result.setTotalSize(project_holder.totalSize());
/* 103 */       append(project_result);
/* 104 */       if (shouldStop()) return;
/* 105 */     }
/* 106 */   }
/* 107 */ }

2017-09-25 05:07:04,545 [streaming-job-executor-0] DEBUG org.apache.spark.internal.Logging$class (Logging.scala:58) - 
/* 001 */ public Object generate(Object[] references) {
/* 002 */   return new GeneratedIterator(references);
/* 003 */ }
/* 004 */
/* 005 */ final class GeneratedIterator extends org.apache.spark.sql.execution.BufferedRowIterator {
/* 006 */   private Object[] references;
/* 007 */   private scala.collection.Iterator inputadapter_input;
/* 008 */   private org.apache.spark.sql.execution.metric.SQLMetric filter_numOutputRows;
/* 009 */   private UnsafeRow filter_result;
/* 010 */   private org.apache.spark.sql.catalyst.expressions.codegen.BufferHolder filter_holder;
/* 011 */   private org.apache.spark.sql.catalyst.expressions.codegen.UnsafeRowWriter filter_rowWriter;
/* 012 */   private UnsafeRow project_result;
/* 013 */   private org.apache.spark.sql.catalyst.expressions.codegen.BufferHolder project_holder;
/* 014 */   private org.apache.spark.sql.catalyst.expressions.codegen.UnsafeRowWriter project_rowWriter;
/* 015 */
/* 016 */   public GeneratedIterator(Object[] references) {
/* 017 */     this.references = references;
/* 018 */   }
/* 019 */
/* 020 */   public void init(int index, scala.collection.Iterator inputs[]) {
/* 021 */     partitionIndex = index;
/* 022 */     inputadapter_input = inputs[0];
/* 023 */     this.filter_numOutputRows = (org.apache.spark.sql.execution.metric.SQLMetric) references[0];
/* 024 */     filter_result = new UnsafeRow(6);
/* 025 */     this.filter_holder = new org.apache.spark.sql.catalyst.expressions.codegen.BufferHolder(filter_result, 192);
/* 026 */     this.filter_rowWriter = new org.apache.spark.sql.catalyst.expressions.codegen.UnsafeRowWriter(filter_holder, 6);
/* 027 */     project_result = new UnsafeRow(5);
/* 028 */     this.project_holder = new org.apache.spark.sql.catalyst.expressions.codegen.BufferHolder(project_result, 128);
/* 029 */     this.project_rowWriter = new org.apache.spark.sql.catalyst.expressions.codegen.UnsafeRowWriter(project_holder, 5);
/* 030 */   }
/* 031 */
/* 032 */   protected void processNext() throws java.io.IOException {
/* 033 */     while (inputadapter_input.hasNext()) {
/* 034 */       InternalRow inputadapter_row = (InternalRow) inputadapter_input.next();
/* 035 */       boolean inputadapter_isNull5 = inputadapter_row.isNullAt(5);
/* 036 */       UTF8String inputadapter_value5 = inputadapter_isNull5 ? null : (inputadapter_row.getUTF8String(5));
/* 037 */
/* 038 */       if (!(!(inputadapter_isNull5))) continue;
/* 039 */
/* 040 */       boolean inputadapter_isNull4 = inputadapter_row.isNullAt(4);
/* 041 */       UTF8String inputadapter_value4 = inputadapter_isNull4 ? null : (inputadapter_row.getUTF8String(4));
/* 042 */
/* 043 */       if (!(!(inputadapter_isNull4))) continue;
/* 044 */
/* 045 */       boolean inputadapter_isNull2 = inputadapter_row.isNullAt(2);
/* 046 */       UTF8String inputadapter_value2 = inputadapter_isNull2 ? null : (inputadapter_row.getUTF8String(2));
/* 047 */
/* 048 */       if (!(!(inputadapter_isNull2))) continue;
/* 049 */
/* 050 */       boolean inputadapter_isNull1 = inputadapter_row.isNullAt(1);
/* 051 */       UTF8String inputadapter_value1 = inputadapter_isNull1 ? null : (inputadapter_row.getUTF8String(1));
/* 052 */
/* 053 */       if (!(!(inputadapter_isNull1))) continue;
/* 054 */
/* 055 */       boolean inputadapter_isNull = inputadapter_row.isNullAt(0);
/* 056 */       UTF8String inputadapter_value = inputadapter_isNull ? null : (inputadapter_row.getUTF8String(0));
/* 057 */
/* 058 */       if (!(!(inputadapter_isNull))) continue;
/* 059 */
/* 060 */       boolean inputadapter_isNull3 = inputadapter_row.isNullAt(3);
/* 061 */       UTF8String inputadapter_value3 = inputadapter_isNull3 ? null : (inputadapter_row.getUTF8String(3));
/* 062 */
/* 063 */       if (!(!(inputadapter_isNull3))) continue;
/* 064 */
/* 065 */       filter_numOutputRows.add(1);
/* 066 */
/* 067 */       boolean project_isNull4 = false;
/* 068 */       int project_value4 = -1;
/* 069 */       if (!false) {
/* 070 */         scala.Option<Integer> project_intOpt =
/* 071 */         org.apache.spark.sql.catalyst.util.DateTimeUtils.stringToDate(inputadapter_value1);
/* 072 */         if (project_intOpt.isDefined()) {
/* 073 */           project_value4 = ((Integer) project_intOpt.get()).intValue();
/* 074 */         } else {
/* 075 */           project_isNull4 = true;
/* 076 */         }
/* 077 */
/* 078 */       }
/* 079 */       boolean project_isNull3 = project_isNull4;
/* 080 */       int project_value3 = -1;
/* 081 */
/* 082 */       if (!project_isNull4) {
/* 083 */         project_value3 = project_value4;
/* 084 */       }
/* 085 */       project_holder.reset();
/* 086 */
/* 087 */       project_rowWriter.zeroOutNullBytes();
/* 088 */
/* 089 */       project_rowWriter.write(0, inputadapter_value5);
/* 090 */
/* 091 */       project_rowWriter.write(1, inputadapter_value4);
/* 092 */
/* 093 */       project_rowWriter.write(2, inputadapter_value2);
/* 094 */
/* 095 */       if (project_isNull3) {
/* 096 */         project_rowWriter.setNullAt(3);
/* 097 */       } else {
/* 098 */         project_rowWriter.write(3, project_value3);
/* 099 */       }
/* 100 */
/* 101 */       project_rowWriter.write(4, inputadapter_value3);
/* 102 */       project_result.setTotalSize(project_holder.totalSize());
/* 103 */       append(project_result);
/* 104 */       if (shouldStop()) return;
/* 105 */     }
/* 106 */   }
/* 107 */ }

2017-09-25 05:07:04,572 [streaming-job-executor-0] INFO  org.apache.spark.internal.Logging$class (Logging.scala:54) - Code generated in 27.833922 ms
2017-09-25 05:07:04,586 [streaming-job-executor-0] DEBUG org.apache.spark.internal.Logging$class (Logging.scala:58) - +++ Cleaning closure <function2> (org.apache.spark.sql.execution.WholeStageCodegenExec$$anonfun$8) +++
2017-09-25 05:07:04,586 [streaming-job-executor-0] DEBUG org.apache.spark.internal.Logging$class (Logging.scala:58) -  + declared fields: 4
2017-09-25 05:07:04,587 [streaming-job-executor-0] DEBUG org.apache.spark.internal.Logging$class (Logging.scala:58) -      public static final long org.apache.spark.sql.execution.WholeStageCodegenExec$$anonfun$8.serialVersionUID
2017-09-25 05:07:04,587 [streaming-job-executor-0] DEBUG org.apache.spark.internal.Logging$class (Logging.scala:58) -      private final org.apache.spark.sql.catalyst.expressions.codegen.CodeAndComment org.apache.spark.sql.execution.WholeStageCodegenExec$$anonfun$8.cleanedSource$2
2017-09-25 05:07:04,587 [streaming-job-executor-0] DEBUG org.apache.spark.internal.Logging$class (Logging.scala:58) -      private final java.lang.Object[] org.apache.spark.sql.execution.WholeStageCodegenExec$$anonfun$8.references$1
2017-09-25 05:07:04,587 [streaming-job-executor-0] DEBUG org.apache.spark.internal.Logging$class (Logging.scala:58) -      public final org.apache.spark.sql.execution.metric.SQLMetric org.apache.spark.sql.execution.WholeStageCodegenExec$$anonfun$8.durationMs$1
2017-09-25 05:07:04,587 [streaming-job-executor-0] DEBUG org.apache.spark.internal.Logging$class (Logging.scala:58) -  + declared methods: 2
2017-09-25 05:07:04,587 [streaming-job-executor-0] DEBUG org.apache.spark.internal.Logging$class (Logging.scala:58) -      public final java.lang.Object org.apache.spark.sql.execution.WholeStageCodegenExec$$anonfun$8.apply(java.lang.Object,java.lang.Object)
2017-09-25 05:07:04,587 [streaming-job-executor-0] DEBUG org.apache.spark.internal.Logging$class (Logging.scala:58) -      public final scala.collection.Iterator org.apache.spark.sql.execution.WholeStageCodegenExec$$anonfun$8.apply(int,scala.collection.Iterator)
2017-09-25 05:07:04,587 [streaming-job-executor-0] DEBUG org.apache.spark.internal.Logging$class (Logging.scala:58) -  + inner classes: 1
2017-09-25 05:07:04,588 [streaming-job-executor-0] DEBUG org.apache.spark.internal.Logging$class (Logging.scala:58) -      org.apache.spark.sql.execution.WholeStageCodegenExec$$anonfun$8$$anon$1
2017-09-25 05:07:04,588 [streaming-job-executor-0] DEBUG org.apache.spark.internal.Logging$class (Logging.scala:58) -  + outer classes: 0
2017-09-25 05:07:04,588 [streaming-job-executor-0] DEBUG org.apache.spark.internal.Logging$class (Logging.scala:58) -  + outer objects: 0
2017-09-25 05:07:04,588 [streaming-job-executor-0] DEBUG org.apache.spark.internal.Logging$class (Logging.scala:58) -  + populating accessed fields because this is the starting closure
2017-09-25 05:07:04,589 [streaming-job-executor-0] DEBUG org.apache.spark.internal.Logging$class (Logging.scala:58) -  + fields accessed by starting closure: 0
2017-09-25 05:07:04,589 [streaming-job-executor-0] DEBUG org.apache.spark.internal.Logging$class (Logging.scala:58) -  + there are no enclosing objects!
2017-09-25 05:07:04,589 [streaming-job-executor-0] DEBUG org.apache.spark.internal.Logging$class (Logging.scala:58) -  +++ closure <function2> (org.apache.spark.sql.execution.WholeStageCodegenExec$$anonfun$8) is now cleaned +++
2017-09-25 05:07:04,590 [streaming-job-executor-0] DEBUG org.apache.spark.internal.Logging$class (Logging.scala:58) - +++ Cleaning closure <function2> (org.apache.spark.sql.execution.WholeStageCodegenExec$$anonfun$8) +++
2017-09-25 05:07:04,591 [streaming-job-executor-0] DEBUG org.apache.spark.internal.Logging$class (Logging.scala:58) -  + declared fields: 4
2017-09-25 05:07:04,591 [streaming-job-executor-0] DEBUG org.apache.spark.internal.Logging$class (Logging.scala:58) -      public static final long org.apache.spark.sql.execution.WholeStageCodegenExec$$anonfun$8.serialVersionUID
2017-09-25 05:07:04,591 [streaming-job-executor-0] DEBUG org.apache.spark.internal.Logging$class (Logging.scala:58) -      private final org.apache.spark.sql.catalyst.expressions.codegen.CodeAndComment org.apache.spark.sql.execution.WholeStageCodegenExec$$anonfun$8.cleanedSource$2
2017-09-25 05:07:04,591 [streaming-job-executor-0] DEBUG org.apache.spark.internal.Logging$class (Logging.scala:58) -      private final java.lang.Object[] org.apache.spark.sql.execution.WholeStageCodegenExec$$anonfun$8.references$1
2017-09-25 05:07:04,591 [streaming-job-executor-0] DEBUG org.apache.spark.internal.Logging$class (Logging.scala:58) -      public final org.apache.spark.sql.execution.metric.SQLMetric org.apache.spark.sql.execution.WholeStageCodegenExec$$anonfun$8.durationMs$1
2017-09-25 05:07:04,592 [streaming-job-executor-0] DEBUG org.apache.spark.internal.Logging$class (Logging.scala:58) -  + declared methods: 2
2017-09-25 05:07:04,592 [streaming-job-executor-0] DEBUG org.apache.spark.internal.Logging$class (Logging.scala:58) -      public final java.lang.Object org.apache.spark.sql.execution.WholeStageCodegenExec$$anonfun$8.apply(java.lang.Object,java.lang.Object)
2017-09-25 05:07:04,592 [streaming-job-executor-0] DEBUG org.apache.spark.internal.Logging$class (Logging.scala:58) -      public final scala.collection.Iterator org.apache.spark.sql.execution.WholeStageCodegenExec$$anonfun$8.apply(int,scala.collection.Iterator)
2017-09-25 05:07:04,592 [streaming-job-executor-0] DEBUG org.apache.spark.internal.Logging$class (Logging.scala:58) -  + inner classes: 1
2017-09-25 05:07:04,592 [streaming-job-executor-0] DEBUG org.apache.spark.internal.Logging$class (Logging.scala:58) -      org.apache.spark.sql.execution.WholeStageCodegenExec$$anonfun$8$$anon$1
2017-09-25 05:07:04,592 [streaming-job-executor-0] DEBUG org.apache.spark.internal.Logging$class (Logging.scala:58) -  + outer classes: 0
2017-09-25 05:07:04,592 [streaming-job-executor-0] DEBUG org.apache.spark.internal.Logging$class (Logging.scala:58) -  + outer objects: 0
2017-09-25 05:07:04,592 [streaming-job-executor-0] DEBUG org.apache.spark.internal.Logging$class (Logging.scala:58) -  + populating accessed fields because this is the starting closure
2017-09-25 05:07:04,593 [streaming-job-executor-0] DEBUG org.apache.spark.internal.Logging$class (Logging.scala:58) -  + fields accessed by starting closure: 0
2017-09-25 05:07:04,614 [streaming-job-executor-0] DEBUG org.apache.spark.internal.Logging$class (Logging.scala:58) -  + there are no enclosing objects!
2017-09-25 05:07:04,614 [streaming-job-executor-0] DEBUG org.apache.spark.internal.Logging$class (Logging.scala:58) -  +++ closure <function2> (org.apache.spark.sql.execution.WholeStageCodegenExec$$anonfun$8) is now cleaned +++
2017-09-25 05:07:04,615 [streaming-job-executor-0] DEBUG org.apache.spark.internal.Logging$class (Logging.scala:58) - +++ Cleaning closure <function2> (org.apache.spark.sql.execution.WholeStageCodegenExec$$anonfun$doExecute$3) +++
2017-09-25 05:07:04,615 [streaming-job-executor-0] DEBUG org.apache.spark.internal.Logging$class (Logging.scala:58) -  + declared fields: 4
2017-09-25 05:07:04,615 [streaming-job-executor-0] DEBUG org.apache.spark.internal.Logging$class (Logging.scala:58) -      public static final long org.apache.spark.sql.execution.WholeStageCodegenExec$$anonfun$doExecute$3.serialVersionUID
2017-09-25 05:07:04,616 [streaming-job-executor-0] DEBUG org.apache.spark.internal.Logging$class (Logging.scala:58) -      private final org.apache.spark.sql.catalyst.expressions.codegen.CodeAndComment org.apache.spark.sql.execution.WholeStageCodegenExec$$anonfun$doExecute$3.cleanedSource$2
2017-09-25 05:07:04,616 [streaming-job-executor-0] DEBUG org.apache.spark.internal.Logging$class (Logging.scala:58) -      private final java.lang.Object[] org.apache.spark.sql.execution.WholeStageCodegenExec$$anonfun$doExecute$3.references$1
2017-09-25 05:07:04,616 [streaming-job-executor-0] DEBUG org.apache.spark.internal.Logging$class (Logging.scala:58) -      public final org.apache.spark.sql.execution.metric.SQLMetric org.apache.spark.sql.execution.WholeStageCodegenExec$$anonfun$doExecute$3.durationMs$1
2017-09-25 05:07:04,616 [streaming-job-executor-0] DEBUG org.apache.spark.internal.Logging$class (Logging.scala:58) -  + declared methods: 2
2017-09-25 05:07:04,616 [streaming-job-executor-0] DEBUG org.apache.spark.internal.Logging$class (Logging.scala:58) -      public final java.lang.Object org.apache.spark.sql.execution.WholeStageCodegenExec$$anonfun$doExecute$3.apply(java.lang.Object,java.lang.Object)
2017-09-25 05:07:04,616 [streaming-job-executor-0] DEBUG org.apache.spark.internal.Logging$class (Logging.scala:58) -      public final scala.collection.Iterator org.apache.spark.sql.execution.WholeStageCodegenExec$$anonfun$doExecute$3.apply(scala.collection.Iterator,scala.collection.Iterator)
2017-09-25 05:07:04,616 [streaming-job-executor-0] DEBUG org.apache.spark.internal.Logging$class (Logging.scala:58) -  + inner classes: 1
2017-09-25 05:07:04,616 [streaming-job-executor-0] DEBUG org.apache.spark.internal.Logging$class (Logging.scala:58) -      org.apache.spark.sql.execution.WholeStageCodegenExec$$anonfun$doExecute$3$$anon$2
2017-09-25 05:07:04,616 [streaming-job-executor-0] DEBUG org.apache.spark.internal.Logging$class (Logging.scala:58) -  + outer classes: 0
2017-09-25 05:07:04,616 [streaming-job-executor-0] DEBUG org.apache.spark.internal.Logging$class (Logging.scala:58) -  + outer objects: 0
2017-09-25 05:07:04,617 [streaming-job-executor-0] DEBUG org.apache.spark.internal.Logging$class (Logging.scala:58) -  + populating accessed fields because this is the starting closure
2017-09-25 05:07:04,617 [streaming-job-executor-0] DEBUG org.apache.spark.internal.Logging$class (Logging.scala:58) -  + fields accessed by starting closure: 0
2017-09-25 05:07:04,617 [streaming-job-executor-0] DEBUG org.apache.spark.internal.Logging$class (Logging.scala:58) -  + there are no enclosing objects!
2017-09-25 05:07:04,638 [streaming-job-executor-0] DEBUG org.apache.spark.internal.Logging$class (Logging.scala:58) -  +++ closure <function2> (org.apache.spark.sql.execution.WholeStageCodegenExec$$anonfun$doExecute$3) is now cleaned +++
2017-09-25 05:07:04,639 [streaming-job-executor-0] DEBUG org.apache.spark.internal.Logging$class (Logging.scala:58) - +++ Cleaning closure <function1> (org.apache.spark.sql.execution.SparkPlan$$anonfun$5) +++
2017-09-25 05:07:04,639 [streaming-job-executor-0] DEBUG org.apache.spark.internal.Logging$class (Logging.scala:58) -  + declared fields: 1
2017-09-25 05:07:04,639 [streaming-job-executor-0] DEBUG org.apache.spark.internal.Logging$class (Logging.scala:58) -      public static final long org.apache.spark.sql.execution.SparkPlan$$anonfun$5.serialVersionUID
2017-09-25 05:07:04,639 [streaming-job-executor-0] DEBUG org.apache.spark.internal.Logging$class (Logging.scala:58) -  + declared methods: 2
2017-09-25 05:07:04,639 [streaming-job-executor-0] DEBUG org.apache.spark.internal.Logging$class (Logging.scala:58) -      public final java.lang.Object org.apache.spark.sql.execution.SparkPlan$$anonfun$5.apply(java.lang.Object)
2017-09-25 05:07:04,639 [streaming-job-executor-0] DEBUG org.apache.spark.internal.Logging$class (Logging.scala:58) -      public final java.lang.Object org.apache.spark.sql.execution.SparkPlan$$anonfun$5.apply(scala.collection.Iterator)
2017-09-25 05:07:04,639 [streaming-job-executor-0] DEBUG org.apache.spark.internal.Logging$class (Logging.scala:58) -  + inner classes: 0
2017-09-25 05:07:04,639 [streaming-job-executor-0] DEBUG org.apache.spark.internal.Logging$class (Logging.scala:58) -  + outer classes: 0
2017-09-25 05:07:04,639 [streaming-job-executor-0] DEBUG org.apache.spark.internal.Logging$class (Logging.scala:58) -  + outer objects: 0
2017-09-25 05:07:04,640 [streaming-job-executor-0] DEBUG org.apache.spark.internal.Logging$class (Logging.scala:58) -  + populating accessed fields because this is the starting closure
2017-09-25 05:07:04,640 [streaming-job-executor-0] DEBUG org.apache.spark.internal.Logging$class (Logging.scala:58) -  + fields accessed by starting closure: 0
2017-09-25 05:07:04,640 [streaming-job-executor-0] DEBUG org.apache.spark.internal.Logging$class (Logging.scala:58) -  + there are no enclosing objects!
2017-09-25 05:07:04,640 [streaming-job-executor-0] DEBUG org.apache.spark.internal.Logging$class (Logging.scala:58) -  +++ closure <function1> (org.apache.spark.sql.execution.SparkPlan$$anonfun$5) is now cleaned +++
2017-09-25 05:07:04,640 [streaming-job-executor-0] DEBUG org.apache.spark.internal.Logging$class (Logging.scala:58) - +++ Cleaning closure <function2> (org.apache.spark.SparkContext$$anonfun$runJob$5) +++
2017-09-25 05:07:04,640 [streaming-job-executor-0] DEBUG org.apache.spark.internal.Logging$class (Logging.scala:58) -  + declared fields: 2
2017-09-25 05:07:04,641 [streaming-job-executor-0] DEBUG org.apache.spark.internal.Logging$class (Logging.scala:58) -      public static final long org.apache.spark.SparkContext$$anonfun$runJob$5.serialVersionUID
2017-09-25 05:07:04,641 [streaming-job-executor-0] DEBUG org.apache.spark.internal.Logging$class (Logging.scala:58) -      private final scala.Function1 org.apache.spark.SparkContext$$anonfun$runJob$5.cleanedFunc$1
2017-09-25 05:07:04,641 [streaming-job-executor-0] DEBUG org.apache.spark.internal.Logging$class (Logging.scala:58) -  + declared methods: 2
2017-09-25 05:07:04,641 [streaming-job-executor-0] DEBUG org.apache.spark.internal.Logging$class (Logging.scala:58) -      public final java.lang.Object org.apache.spark.SparkContext$$anonfun$runJob$5.apply(java.lang.Object,java.lang.Object)
2017-09-25 05:07:04,641 [streaming-job-executor-0] DEBUG org.apache.spark.internal.Logging$class (Logging.scala:58) -      public final java.lang.Object org.apache.spark.SparkContext$$anonfun$runJob$5.apply(org.apache.spark.TaskContext,scala.collection.Iterator)
2017-09-25 05:07:04,641 [streaming-job-executor-0] DEBUG org.apache.spark.internal.Logging$class (Logging.scala:58) -  + inner classes: 0
2017-09-25 05:07:04,641 [streaming-job-executor-0] DEBUG org.apache.spark.internal.Logging$class (Logging.scala:58) -  + outer classes: 0
2017-09-25 05:07:04,641 [streaming-job-executor-0] DEBUG org.apache.spark.internal.Logging$class (Logging.scala:58) -  + outer objects: 0
2017-09-25 05:07:04,641 [streaming-job-executor-0] DEBUG org.apache.spark.internal.Logging$class (Logging.scala:58) -  + populating accessed fields because this is the starting closure
2017-09-25 05:07:04,641 [streaming-job-executor-0] DEBUG org.apache.spark.internal.Logging$class (Logging.scala:58) -  + fields accessed by starting closure: 0
2017-09-25 05:07:04,641 [streaming-job-executor-0] DEBUG org.apache.spark.internal.Logging$class (Logging.scala:58) -  + there are no enclosing objects!
2017-09-25 05:07:04,641 [streaming-job-executor-0] DEBUG org.apache.spark.internal.Logging$class (Logging.scala:58) -  +++ closure <function2> (org.apache.spark.SparkContext$$anonfun$runJob$5) is now cleaned +++
2017-09-25 05:07:04,642 [streaming-job-executor-0] INFO  org.apache.spark.internal.Logging$class (Logging.scala:54) - Starting job: head at DataframeOperations.scala:13
2017-09-25 05:07:04,642 [dag-scheduler-event-loop] INFO  org.apache.spark.internal.Logging$class (Logging.scala:54) - Registering RDD 22034 (head at DataframeOperations.scala:13)
2017-09-25 05:07:04,650 [dag-scheduler-event-loop] INFO  org.apache.spark.internal.Logging$class (Logging.scala:54) - Registering RDD 22027 (head at DataframeOperations.scala:13)
2017-09-25 05:07:04,650 [dag-scheduler-event-loop] INFO  org.apache.spark.internal.Logging$class (Logging.scala:54) - Got job 2899 (head at DataframeOperations.scala:13) with 1 output partitions
2017-09-25 05:07:04,650 [dag-scheduler-event-loop] INFO  org.apache.spark.internal.Logging$class (Logging.scala:54) - Final stage: ResultStage 4923 (head at DataframeOperations.scala:13)
2017-09-25 05:07:04,650 [dag-scheduler-event-loop] INFO  org.apache.spark.internal.Logging$class (Logging.scala:54) - Parents of final stage: List(ShuffleMapStage 4921, ShuffleMapStage 4922)
2017-09-25 05:07:04,650 [dag-scheduler-event-loop] INFO  org.apache.spark.internal.Logging$class (Logging.scala:54) - Missing parents: List(ShuffleMapStage 4921, ShuffleMapStage 4922)
2017-09-25 05:07:04,650 [dag-scheduler-event-loop] DEBUG org.apache.spark.internal.Logging$class (Logging.scala:58) - submitStage(ResultStage 4923)
2017-09-25 05:07:04,651 [dag-scheduler-event-loop] DEBUG org.apache.spark.internal.Logging$class (Logging.scala:58) - missing: List(ShuffleMapStage 4921, ShuffleMapStage 4922)
2017-09-25 05:07:04,651 [dag-scheduler-event-loop] DEBUG org.apache.spark.internal.Logging$class (Logging.scala:58) - submitStage(ShuffleMapStage 4921)
2017-09-25 05:07:04,651 [dag-scheduler-event-loop] DEBUG org.apache.spark.internal.Logging$class (Logging.scala:58) - missing: List()
2017-09-25 05:07:04,651 [dag-scheduler-event-loop] INFO  org.apache.spark.internal.Logging$class (Logging.scala:54) - Submitting ShuffleMapStage 4921 (MapPartitionsRDD[22034] at head at DataframeOperations.scala:13), which has no missing parents
2017-09-25 05:07:04,651 [dag-scheduler-event-loop] DEBUG org.apache.spark.internal.Logging$class (Logging.scala:58) - submitMissingTasks(ShuffleMapStage 4921)
2017-09-25 05:07:04,652 [dag-scheduler-event-loop] INFO  org.apache.spark.internal.Logging$class (Logging.scala:54) - Block broadcast_6080 stored as values in memory (estimated size 35.2 KB, free 174.7 MB)
2017-09-25 05:07:04,652 [dag-scheduler-event-loop] DEBUG org.apache.spark.internal.Logging$class (Logging.scala:58) - Put block broadcast_6080 locally took  0 ms
2017-09-25 05:07:04,652 [dag-scheduler-event-loop] DEBUG org.apache.spark.internal.Logging$class (Logging.scala:58) - Putting block broadcast_6080 without replication took  0 ms
2017-09-25 05:07:04,653 [dag-scheduler-event-loop] INFO  org.apache.spark.internal.Logging$class (Logging.scala:54) - Block broadcast_6080_piece0 stored as bytes in memory (estimated size 14.9 KB, free 174.6 MB)
2017-09-25 05:07:04,653 [dispatcher-event-loop-1] INFO  org.apache.spark.internal.Logging$class (Logging.scala:54) - Added broadcast_6080_piece0 in memory on 172.22.0.8:39354 (size: 14.9 KB, free: 366.3 MB)
2017-09-25 05:07:04,653 [dag-scheduler-event-loop] DEBUG org.apache.spark.internal.Logging$class (Logging.scala:58) - Updated info of block broadcast_6080_piece0
2017-09-25 05:07:04,653 [dag-scheduler-event-loop] DEBUG org.apache.spark.internal.Logging$class (Logging.scala:58) - Told master about block broadcast_6080_piece0
2017-09-25 05:07:04,653 [dag-scheduler-event-loop] DEBUG org.apache.spark.internal.Logging$class (Logging.scala:58) - Put block broadcast_6080_piece0 locally took  0 ms
2017-09-25 05:07:04,653 [dag-scheduler-event-loop] DEBUG org.apache.spark.internal.Logging$class (Logging.scala:58) - Putting block broadcast_6080_piece0 without replication took  0 ms
2017-09-25 05:07:04,653 [dag-scheduler-event-loop] INFO  org.apache.spark.internal.Logging$class (Logging.scala:54) - Created broadcast 6080 from broadcast at DAGScheduler.scala:1012
2017-09-25 05:07:04,654 [dag-scheduler-event-loop] INFO  org.apache.spark.internal.Logging$class (Logging.scala:54) - Submitting 6 missing tasks from ShuffleMapStage 4921 (MapPartitionsRDD[22034] at head at DataframeOperations.scala:13)
2017-09-25 05:07:04,654 [dag-scheduler-event-loop] DEBUG org.apache.spark.internal.Logging$class (Logging.scala:58) - New pending partitions: Set(0, 1, 5, 2, 3, 4)
2017-09-25 05:07:04,654 [dag-scheduler-event-loop] INFO  org.apache.spark.internal.Logging$class (Logging.scala:54) - Adding task set 4921.0 with 6 tasks
2017-09-25 05:07:04,654 [dag-scheduler-event-loop] DEBUG org.apache.spark.internal.Logging$class (Logging.scala:58) - Epoch for TaskSet 4921.0: 1445
2017-09-25 05:07:04,654 [dag-scheduler-event-loop] DEBUG org.apache.spark.internal.Logging$class (Logging.scala:58) - Valid locality levels for TaskSet 4921.0: ANY
2017-09-25 05:07:04,654 [dag-scheduler-event-loop] DEBUG org.apache.spark.internal.Logging$class (Logging.scala:58) - submitStage(ShuffleMapStage 4922)
2017-09-25 05:07:04,654 [dispatcher-event-loop-7] DEBUG org.apache.spark.internal.Logging$class (Logging.scala:58) - parentName: , name: TaskSet_4921, runningTasks: 0
2017-09-25 05:07:04,654 [dag-scheduler-event-loop] DEBUG org.apache.spark.internal.Logging$class (Logging.scala:58) - missing: List()
2017-09-25 05:07:04,654 [dag-scheduler-event-loop] INFO  org.apache.spark.internal.Logging$class (Logging.scala:54) - Submitting ShuffleMapStage 4922 (MapPartitionsRDD[22027] at head at DataframeOperations.scala:13), which has no missing parents
2017-09-25 05:07:04,654 [dag-scheduler-event-loop] DEBUG org.apache.spark.internal.Logging$class (Logging.scala:58) - submitMissingTasks(ShuffleMapStage 4922)
2017-09-25 05:07:04,654 [dispatcher-event-loop-7] INFO  org.apache.spark.internal.Logging$class (Logging.scala:54) - Starting task 0.0 in stage 4921.0 (TID 20538, 172.22.0.4, partition 0, ANY, 14050 bytes)
2017-09-25 05:07:04,671 [dispatcher-event-loop-7] INFO  org.apache.spark.internal.Logging$class (Logging.scala:54) - Launching task 20538 on executor id: 0 hostname: 172.22.0.4.
2017-09-25 05:07:04,674 [shuffle-server-1] DEBUG org.apache.spark.internal.Logging$class (Logging.scala:58) - Getting local block broadcast_6080_piece0 as bytes
2017-09-25 05:07:04,699 [shuffle-server-1] DEBUG org.apache.spark.internal.Logging$class (Logging.scala:58) - Level for block broadcast_6080_piece0 is StorageLevel(disk, memory, 1 replicas)
2017-09-25 05:07:04,700 [dag-scheduler-event-loop] INFO  org.apache.spark.internal.Logging$class (Logging.scala:54) - Block broadcast_6081 stored as values in memory (estimated size 23.7 KB, free 174.6 MB)
2017-09-25 05:07:04,700 [dag-scheduler-event-loop] DEBUG org.apache.spark.internal.Logging$class (Logging.scala:58) - Put block broadcast_6081 locally took  0 ms
2017-09-25 05:07:04,700 [dag-scheduler-event-loop] DEBUG org.apache.spark.internal.Logging$class (Logging.scala:58) - Putting block broadcast_6081 without replication took  0 ms
2017-09-25 05:07:04,701 [dispatcher-event-loop-3] INFO  org.apache.spark.internal.Logging$class (Logging.scala:54) - Added broadcast_6080_piece0 in memory on 172.22.0.4:36673 (size: 14.9 KB, free: 365.8 MB)
2017-09-25 05:07:04,701 [dag-scheduler-event-loop] INFO  org.apache.spark.internal.Logging$class (Logging.scala:54) - Block broadcast_6081_piece0 stored as bytes in memory (estimated size 10.6 KB, free 174.6 MB)
2017-09-25 05:07:04,701 [dispatcher-event-loop-2] INFO  org.apache.spark.internal.Logging$class (Logging.scala:54) - Added broadcast_6081_piece0 in memory on 172.22.0.8:39354 (size: 10.6 KB, free: 366.3 MB)
2017-09-25 05:07:04,701 [dag-scheduler-event-loop] DEBUG org.apache.spark.internal.Logging$class (Logging.scala:58) - Updated info of block broadcast_6081_piece0
2017-09-25 05:07:04,701 [dag-scheduler-event-loop] DEBUG org.apache.spark.internal.Logging$class (Logging.scala:58) - Told master about block broadcast_6081_piece0
2017-09-25 05:07:04,701 [dag-scheduler-event-loop] DEBUG org.apache.spark.internal.Logging$class (Logging.scala:58) - Put block broadcast_6081_piece0 locally took  0 ms
2017-09-25 05:07:04,701 [dag-scheduler-event-loop] DEBUG org.apache.spark.internal.Logging$class (Logging.scala:58) - Putting block broadcast_6081_piece0 without replication took  0 ms
2017-09-25 05:07:04,702 [dag-scheduler-event-loop] INFO  org.apache.spark.internal.Logging$class (Logging.scala:54) - Created broadcast 6081 from broadcast at DAGScheduler.scala:1012
2017-09-25 05:07:04,702 [dag-scheduler-event-loop] INFO  org.apache.spark.internal.Logging$class (Logging.scala:54) - Submitting 6 missing tasks from ShuffleMapStage 4922 (MapPartitionsRDD[22027] at head at DataframeOperations.scala:13)
2017-09-25 05:07:04,702 [dag-scheduler-event-loop] DEBUG org.apache.spark.internal.Logging$class (Logging.scala:58) - New pending partitions: Set(0, 1, 5, 2, 3, 4)
2017-09-25 05:07:04,702 [dag-scheduler-event-loop] INFO  org.apache.spark.internal.Logging$class (Logging.scala:54) - Adding task set 4922.0 with 6 tasks
2017-09-25 05:07:04,702 [dag-scheduler-event-loop] DEBUG org.apache.spark.internal.Logging$class (Logging.scala:58) - Epoch for TaskSet 4922.0: 1445
2017-09-25 05:07:04,702 [dag-scheduler-event-loop] DEBUG org.apache.spark.internal.Logging$class (Logging.scala:58) - Valid locality levels for TaskSet 4922.0: ANY
2017-09-25 05:07:04,702 [dag-scheduler-event-loop] DEBUG org.apache.spark.internal.Logging$class (Logging.scala:58) - submitStage(ResultStage 4923)
2017-09-25 05:07:04,702 [dispatcher-event-loop-0] DEBUG org.apache.spark.internal.Logging$class (Logging.scala:58) - parentName: , name: TaskSet_4921, runningTasks: 1
2017-09-25 05:07:04,702 [dispatcher-event-loop-0] DEBUG org.apache.spark.internal.Logging$class (Logging.scala:58) - parentName: , name: TaskSet_4922, runningTasks: 0
2017-09-25 05:07:04,702 [dag-scheduler-event-loop] DEBUG org.apache.spark.internal.Logging$class (Logging.scala:58) - missing: List(ShuffleMapStage 4921, ShuffleMapStage 4922)
2017-09-25 05:07:04,702 [dag-scheduler-event-loop] DEBUG org.apache.spark.internal.Logging$class (Logging.scala:58) - submitStage(ShuffleMapStage 4921)
2017-09-25 05:07:04,702 [dag-scheduler-event-loop] DEBUG org.apache.spark.internal.Logging$class (Logging.scala:58) - submitStage(ShuffleMapStage 4922)
2017-09-25 05:07:04,702 [dag-scheduler-event-loop] DEBUG org.apache.spark.internal.Logging$class (Logging.scala:58) - submitStage(ResultStage 4923)
2017-09-25 05:07:04,702 [dag-scheduler-event-loop] DEBUG org.apache.spark.internal.Logging$class (Logging.scala:58) - missing: List(ShuffleMapStage 4921, ShuffleMapStage 4922)
2017-09-25 05:07:04,702 [dag-scheduler-event-loop] DEBUG org.apache.spark.internal.Logging$class (Logging.scala:58) - submitStage(ShuffleMapStage 4921)
2017-09-25 05:07:04,703 [dag-scheduler-event-loop] DEBUG org.apache.spark.internal.Logging$class (Logging.scala:58) - submitStage(ShuffleMapStage 4922)
2017-09-25 05:07:05,297 [dispatcher-event-loop-6] DEBUG org.apache.spark.internal.Logging$class (Logging.scala:58) - parentName: , name: TaskSet_4921, runningTasks: 1
2017-09-25 05:07:05,297 [dispatcher-event-loop-6] DEBUG org.apache.spark.internal.Logging$class (Logging.scala:58) - parentName: , name: TaskSet_4922, runningTasks: 0
2017-09-25 05:07:05,427 [dispatcher-event-loop-7] INFO  org.apache.spark.internal.Logging$class (Logging.scala:54) - Added rdd_22017_0 in memory on 172.22.0.4:36673 (size: 60.2 KB, free: 365.7 MB)
2017-09-25 05:07:05,493 [dispatcher-event-loop-4] DEBUG org.apache.spark.internal.Logging$class (Logging.scala:58) - parentName: , name: TaskSet_4921, runningTasks: 0
2017-09-25 05:07:05,493 [dispatcher-event-loop-4] DEBUG org.apache.spark.internal.Logging$class (Logging.scala:58) - parentName: , name: TaskSet_4922, runningTasks: 0
2017-09-25 05:07:05,494 [dispatcher-event-loop-4] INFO  org.apache.spark.internal.Logging$class (Logging.scala:54) - Starting task 1.0 in stage 4921.0 (TID 20539, 172.22.0.4, partition 1, ANY, 13926 bytes)
2017-09-25 05:07:05,494 [dispatcher-event-loop-4] INFO  org.apache.spark.internal.Logging$class (Logging.scala:54) - Launching task 20539 on executor id: 0 hostname: 172.22.0.4.
2017-09-25 05:07:05,494 [task-result-getter-1] INFO  org.apache.spark.internal.Logging$class (Logging.scala:54) - Finished task 0.0 in stage 4921.0 (TID 20538) in 840 ms on 172.22.0.4 (1/6)
2017-09-25 05:07:05,494 [dag-scheduler-event-loop] DEBUG org.apache.spark.internal.Logging$class (Logging.scala:58) - submitStage(ResultStage 4923)
2017-09-25 05:07:05,494 [dag-scheduler-event-loop] DEBUG org.apache.spark.internal.Logging$class (Logging.scala:58) - missing: List(ShuffleMapStage 4921, ShuffleMapStage 4922)
2017-09-25 05:07:05,494 [dag-scheduler-event-loop] DEBUG org.apache.spark.internal.Logging$class (Logging.scala:58) - submitStage(ShuffleMapStage 4921)
2017-09-25 05:07:05,494 [dag-scheduler-event-loop] DEBUG org.apache.spark.internal.Logging$class (Logging.scala:58) - submitStage(ShuffleMapStage 4922)
2017-09-25 05:07:05,494 [dag-scheduler-event-loop] DEBUG org.apache.spark.internal.Logging$class (Logging.scala:58) - ShuffleMapTask finished on 0
2017-09-25 05:07:05,494 [dag-scheduler-event-loop] DEBUG org.apache.spark.internal.Logging$class (Logging.scala:58) - submitStage(ResultStage 4923)
2017-09-25 05:07:05,494 [dag-scheduler-event-loop] DEBUG org.apache.spark.internal.Logging$class (Logging.scala:58) - missing: List(ShuffleMapStage 4921, ShuffleMapStage 4922)
2017-09-25 05:07:05,494 [dag-scheduler-event-loop] DEBUG org.apache.spark.internal.Logging$class (Logging.scala:58) - submitStage(ShuffleMapStage 4921)
2017-09-25 05:07:05,494 [dag-scheduler-event-loop] DEBUG org.apache.spark.internal.Logging$class (Logging.scala:58) - submitStage(ShuffleMapStage 4922)
2017-09-25 05:07:05,787 [dispatcher-event-loop-2] INFO  org.apache.spark.internal.Logging$class (Logging.scala:54) - Added rdd_22017_1 in memory on 172.22.0.4:36673 (size: 55.7 KB, free: 365.7 MB)
2017-09-25 05:07:05,792 [dispatcher-event-loop-0] DEBUG org.apache.spark.internal.Logging$class (Logging.scala:58) - parentName: , name: TaskSet_4921, runningTasks: 0
2017-09-25 05:07:05,792 [dispatcher-event-loop-0] DEBUG org.apache.spark.internal.Logging$class (Logging.scala:58) - parentName: , name: TaskSet_4922, runningTasks: 0
2017-09-25 05:07:05,792 [dispatcher-event-loop-0] INFO  org.apache.spark.internal.Logging$class (Logging.scala:54) - Starting task 2.0 in stage 4921.0 (TID 20540, 172.22.0.4, partition 2, ANY, 13572 bytes)
2017-09-25 05:07:05,792 [dispatcher-event-loop-0] INFO  org.apache.spark.internal.Logging$class (Logging.scala:54) - Launching task 20540 on executor id: 0 hostname: 172.22.0.4.
2017-09-25 05:07:05,792 [task-result-getter-2] INFO  org.apache.spark.internal.Logging$class (Logging.scala:54) - Finished task 1.0 in stage 4921.0 (TID 20539) in 299 ms on 172.22.0.4 (2/6)
2017-09-25 05:07:05,793 [dag-scheduler-event-loop] DEBUG org.apache.spark.internal.Logging$class (Logging.scala:58) - submitStage(ResultStage 4923)
2017-09-25 05:07:05,793 [dag-scheduler-event-loop] DEBUG org.apache.spark.internal.Logging$class (Logging.scala:58) - missing: List(ShuffleMapStage 4921, ShuffleMapStage 4922)
2017-09-25 05:07:05,793 [dag-scheduler-event-loop] DEBUG org.apache.spark.internal.Logging$class (Logging.scala:58) - submitStage(ShuffleMapStage 4921)
2017-09-25 05:07:05,793 [dag-scheduler-event-loop] DEBUG org.apache.spark.internal.Logging$class (Logging.scala:58) - submitStage(ShuffleMapStage 4922)
2017-09-25 05:07:05,793 [dag-scheduler-event-loop] DEBUG org.apache.spark.internal.Logging$class (Logging.scala:58) - ShuffleMapTask finished on 0
2017-09-25 05:07:05,793 [dag-scheduler-event-loop] DEBUG org.apache.spark.internal.Logging$class (Logging.scala:58) - submitStage(ResultStage 4923)
2017-09-25 05:07:05,793 [dag-scheduler-event-loop] DEBUG org.apache.spark.internal.Logging$class (Logging.scala:58) - missing: List(ShuffleMapStage 4921, ShuffleMapStage 4922)
2017-09-25 05:07:05,793 [dag-scheduler-event-loop] DEBUG org.apache.spark.internal.Logging$class (Logging.scala:58) - submitStage(ShuffleMapStage 4921)
2017-09-25 05:07:05,793 [dag-scheduler-event-loop] DEBUG org.apache.spark.internal.Logging$class (Logging.scala:58) - submitStage(ShuffleMapStage 4922)
2017-09-25 05:07:06,058 [dispatcher-event-loop-7] INFO  org.apache.spark.internal.Logging$class (Logging.scala:54) - Added rdd_22017_2 in memory on 172.22.0.4:36673 (size: 58.9 KB, free: 365.6 MB)
2017-09-25 05:07:06,075 [dispatcher-event-loop-4] DEBUG org.apache.spark.internal.Logging$class (Logging.scala:58) - parentName: , name: TaskSet_4921, runningTasks: 0
2017-09-25 05:07:06,075 [dispatcher-event-loop-4] DEBUG org.apache.spark.internal.Logging$class (Logging.scala:58) - parentName: , name: TaskSet_4922, runningTasks: 0
2017-09-25 05:07:06,075 [dispatcher-event-loop-4] INFO  org.apache.spark.internal.Logging$class (Logging.scala:54) - Starting task 3.0 in stage 4921.0 (TID 20541, 172.22.0.4, partition 3, ANY, 13931 bytes)
2017-09-25 05:07:06,075 [dispatcher-event-loop-4] INFO  org.apache.spark.internal.Logging$class (Logging.scala:54) - Launching task 20541 on executor id: 0 hostname: 172.22.0.4.
2017-09-25 05:07:06,075 [dag-scheduler-event-loop] DEBUG org.apache.spark.internal.Logging$class (Logging.scala:58) - submitStage(ResultStage 4923)
2017-09-25 05:07:06,076 [dag-scheduler-event-loop] DEBUG org.apache.spark.internal.Logging$class (Logging.scala:58) - missing: List(ShuffleMapStage 4921, ShuffleMapStage 4922)
2017-09-25 05:07:06,076 [dag-scheduler-event-loop] DEBUG org.apache.spark.internal.Logging$class (Logging.scala:58) - submitStage(ShuffleMapStage 4921)
2017-09-25 05:07:06,076 [dag-scheduler-event-loop] DEBUG org.apache.spark.internal.Logging$class (Logging.scala:58) - submitStage(ShuffleMapStage 4922)
2017-09-25 05:07:06,076 [task-result-getter-0] INFO  org.apache.spark.internal.Logging$class (Logging.scala:54) - Finished task 2.0 in stage 4921.0 (TID 20540) in 284 ms on 172.22.0.4 (3/6)
2017-09-25 05:07:06,076 [dag-scheduler-event-loop] DEBUG org.apache.spark.internal.Logging$class (Logging.scala:58) - ShuffleMapTask finished on 0
2017-09-25 05:07:06,076 [dag-scheduler-event-loop] DEBUG org.apache.spark.internal.Logging$class (Logging.scala:58) - submitStage(ResultStage 4923)
2017-09-25 05:07:06,076 [dag-scheduler-event-loop] DEBUG org.apache.spark.internal.Logging$class (Logging.scala:58) - missing: List(ShuffleMapStage 4921, ShuffleMapStage 4922)
2017-09-25 05:07:06,076 [dag-scheduler-event-loop] DEBUG org.apache.spark.internal.Logging$class (Logging.scala:58) - submitStage(ShuffleMapStage 4921)
2017-09-25 05:07:06,076 [dag-scheduler-event-loop] DEBUG org.apache.spark.internal.Logging$class (Logging.scala:58) - submitStage(ShuffleMapStage 4922)
